Simulations/Exec.vcd
$date
  Tue Nov 21 15:12:32 2023
$end
$version
  GHDL v0
$end
$timescale
  1 fs
$end
$var reg 1 ! dec2exe_empty $end
$var reg 1 " exe_pop $end
$var reg 1 # dec_exe_wb $end
$var reg 1 $ dec_flag_wb $end
$var reg 1 % dec_pre_index $end
$var reg 1 & dec_mem_lw $end
$var reg 1 ' dec_mem_lb $end
$var reg 1 ( dec_mem_sw $end
$var reg 1 ) dec_mem_sb $end
$var reg 1 * dec_shift_lsl $end
$var reg 1 + dec_shift_lsr $end
$var reg 1 , dec_shift_asr $end
$var reg 1 - dec_shift_ror $end
$var reg 1 . dec_shift_rrx $end
$var reg 1 / dec_comp_op1 $end
$var reg 1 0 dec_comp_op2 $end
$var reg 1 1 dec_alu_cy $end
$var reg 1 2 mem_pop $end
$var reg 1 3 ck $end
$var reg 1 4 reset_n $end
$var reg 32 5 dec_op1[31:0] $end
$var reg 32 6 dec_op2[31:0] $end
$var reg 32 7 dec_mem_data[31:0] $end
$var reg 32 8 exe_res[31:0] $end
$var reg 32 9 exe_mem_adr[31:0] $end
$var reg 32 : exe_mem_data[31:0] $end
$var reg 1 ; exe_c $end
$var reg 1 < exe_v $end
$var reg 1 = exe_n $end
$var reg 1 > exe_z $end
$var reg 1 ? exe_wb $end
$var reg 1 @ exe_flag_wb $end
$var reg 1 A exe_mem_lw $end
$var reg 1 B exe_mem_lb $end
$var reg 1 C exe_mem_sw $end
$var reg 1 D exe_mem_sb $end
$var reg 1 E exe2mem_empty $end
$var reg 1 F dec_cy $end
$var reg 4 G exe_mem_dest[3:0] $end
$var reg 4 H dec_mem_dest[3:0] $end
$var reg 4 I exe_dest[3:0] $end
$var reg 4 J dec_exe_dest[3:0] $end
$var reg 2 K dec_alu_cmd[1:0] $end
$var reg 5 L dec_shift_val[4:0] $end
$var reg 1 M vdd $end
$var reg 1 N vss $end
$scope module exe $end
$var reg 1 O dec2exe_empty $end
$var reg 1 P exe_pop $end
$var reg 32 Q dec_op1[31:0] $end
$var reg 32 R dec_op2[31:0] $end
$var reg 4 S dec_exe_dest[3:0] $end
$var reg 1 T dec_exe_wb $end
$var reg 1 U dec_flag_wb $end
$var reg 32 V dec_mem_data[31:0] $end
$var reg 4 W dec_mem_dest[3:0] $end
$var reg 1 X dec_pre_index $end
$var reg 1 Y dec_mem_lw $end
$var reg 1 Z dec_mem_lb $end
$var reg 1 [ dec_mem_sw $end
$var reg 1 \ dec_mem_sb $end
$var reg 1 ] dec_shift_lsl $end
$var reg 1 ^ dec_shift_lsr $end
$var reg 1 _ dec_shift_asr $end
$var reg 1 ` dec_shift_ror $end
$var reg 1 a dec_shift_rrx $end
$var reg 5 b dec_shift_val[4:0] $end
$var reg 1 c dec_cy $end
$var reg 1 d dec_comp_op1 $end
$var reg 1 e dec_comp_op2 $end
$var reg 1 f dec_alu_cy $end
$var reg 2 g dec_alu_cmd[1:0] $end
$var reg 32 h exe_res[31:0] $end
$var reg 1 i exe_c $end
$var reg 1 j exe_v $end
$var reg 1 k exe_n $end
$var reg 1 l exe_z $end
$var reg 4 m exe_dest[3:0] $end
$var reg 1 n exe_wb $end
$var reg 1 o exe_flag_wb $end
$var reg 32 p exe_mem_adr[31:0] $end
$var reg 32 q exe_mem_data[31:0] $end
$var reg 4 r exe_mem_dest[3:0] $end
$var reg 1 s exe_mem_lw $end
$var reg 1 t exe_mem_lb $end
$var reg 1 u exe_mem_sw $end
$var reg 1 v exe_mem_sb $end
$var reg 1 w exe2mem_empty $end
$var reg 1 x mem_pop $end
$var reg 1 y ck $end
$var reg 1 z reset_n $end
$var reg 1 { vdd $end
$var reg 1 | vss $end
$var reg 1 } shift_c $end
$var reg 1 !" alu_c $end
$var reg 1 "" alu_z $end
$var reg 1 #" alu_n $end
$var reg 1 $" alu_v $end
$var reg 32 %" op2[31:0] $end
$var reg 32 &" op2_shift[31:0] $end
$var reg 32 '" op1[31:0] $end
$var reg 32 (" alu_res[31:0] $end
$var reg 32 )" res_reg[31:0] $end
$var reg 32 *" mem_adr[31:0] $end
$var reg 1 +" exe_push $end
$var reg 1 ," exe2mem_full $end
$var reg 1 -" mem_acces $end
$scope module shifter_inst $end
$var reg 1 ." shift_lsl $end
$var reg 1 /" shift_lsr $end
$var reg 1 0" shift_asr $end
$var reg 1 1" shift_ror $end
$var reg 1 2" shift_rrx $end
$var reg 5 3" shift_val[4:0] $end
$var reg 32 4" din[31:0] $end
$var reg 1 5" cin $end
$var reg 32 6" dout[31:0] $end
$var reg 1 7" cout $end
$var reg 1 8" vdd $end
$var reg 1 9" vss $end
$var reg 32 :" sig_dout[31:0] $end
$var reg 1 ;" sig_cout $end
$upscope $end
$scope module alu_inst $end
$var reg 32 <" op1[31:0] $end
$var reg 32 =" op2[31:0] $end
$var reg 1 >" cin $end
$var reg 2 ?" cmd[1:0] $end
$var reg 32 @" res[31:0] $end
$var reg 1 A" cout $end
$var reg 1 B" z $end
$var reg 1 C" n $end
$var reg 1 D" v $end
$var reg 1 E" vdd $end
$var reg 1 F" vss $end
$var reg 32 G" adder_result[31:0] $end
$var reg 1 H" adder_cout $end
$scope module ad32 $end
$var reg 32 I" a[31:0] $end
$var reg 32 J" b[31:0] $end
$var reg 1 K" cin $end
$var reg 32 L" res[31:0] $end
$var reg 1 M" cout $end
$var reg 10 N" c[9:0] $end
$scope module fa0 $end
$var reg 4 O" a[3:0] $end
$var reg 4 P" b[3:0] $end
$var reg 1 Q" cin $end
$var reg 4 R" res[3:0] $end
$var reg 1 S" cout $end
$var reg 5 T" c[4:0] $end
$scope module fa0 $end
$var reg 1 U" a $end
$var reg 1 V" b $end
$var reg 1 W" cin $end
$var reg 1 X" res $end
$var reg 1 Y" cout $end
$upscope $end
$scope module fa1 $end
$var reg 1 Z" a $end
$var reg 1 [" b $end
$var reg 1 \" cin $end
$var reg 1 ]" res $end
$var reg 1 ^" cout $end
$upscope $end
$scope module fa2 $end
$var reg 1 _" a $end
$var reg 1 `" b $end
$var reg 1 a" cin $end
$var reg 1 b" res $end
$var reg 1 c" cout $end
$upscope $end
$scope module fa3 $end
$var reg 1 d" a $end
$var reg 1 e" b $end
$var reg 1 f" cin $end
$var reg 1 g" res $end
$var reg 1 h" cout $end
$upscope $end
$upscope $end
$scope module fa1 $end
$var reg 4 i" a[3:0] $end
$var reg 4 j" b[3:0] $end
$var reg 1 k" cin $end
$var reg 4 l" res[3:0] $end
$var reg 1 m" cout $end
$var reg 5 n" c[4:0] $end
$scope module fa0 $end
$var reg 1 o" a $end
$var reg 1 p" b $end
$var reg 1 q" cin $end
$var reg 1 r" res $end
$var reg 1 s" cout $end
$upscope $end
$scope module fa1 $end
$var reg 1 t" a $end
$var reg 1 u" b $end
$var reg 1 v" cin $end
$var reg 1 w" res $end
$var reg 1 x" cout $end
$upscope $end
$scope module fa2 $end
$var reg 1 y" a $end
$var reg 1 z" b $end
$var reg 1 {" cin $end
$var reg 1 |" res $end
$var reg 1 }" cout $end
$upscope $end
$scope module fa3 $end
$var reg 1 !# a $end
$var reg 1 "# b $end
$var reg 1 ## cin $end
$var reg 1 $# res $end
$var reg 1 %# cout $end
$upscope $end
$upscope $end
$scope module fa2 $end
$var reg 4 &# a[3:0] $end
$var reg 4 '# b[3:0] $end
$var reg 1 (# cin $end
$var reg 4 )# res[3:0] $end
$var reg 1 *# cout $end
$var reg 5 +# c[4:0] $end
$scope module fa0 $end
$var reg 1 ,# a $end
$var reg 1 -# b $end
$var reg 1 .# cin $end
$var reg 1 /# res $end
$var reg 1 0# cout $end
$upscope $end
$scope module fa1 $end
$var reg 1 1# a $end
$var reg 1 2# b $end
$var reg 1 3# cin $end
$var reg 1 4# res $end
$var reg 1 5# cout $end
$upscope $end
$scope module fa2 $end
$var reg 1 6# a $end
$var reg 1 7# b $end
$var reg 1 8# cin $end
$var reg 1 9# res $end
$var reg 1 :# cout $end
$upscope $end
$scope module fa3 $end
$var reg 1 ;# a $end
$var reg 1 <# b $end
$var reg 1 =# cin $end
$var reg 1 ># res $end
$var reg 1 ?# cout $end
$upscope $end
$upscope $end
$scope module fa3 $end
$var reg 4 @# a[3:0] $end
$var reg 4 A# b[3:0] $end
$var reg 1 B# cin $end
$var reg 4 C# res[3:0] $end
$var reg 1 D# cout $end
$var reg 5 E# c[4:0] $end
$scope module fa0 $end
$var reg 1 F# a $end
$var reg 1 G# b $end
$var reg 1 H# cin $end
$var reg 1 I# res $end
$var reg 1 J# cout $end
$upscope $end
$scope module fa1 $end
$var reg 1 K# a $end
$var reg 1 L# b $end
$var reg 1 M# cin $end
$var reg 1 N# res $end
$var reg 1 O# cout $end
$upscope $end
$scope module fa2 $end
$var reg 1 P# a $end
$var reg 1 Q# b $end
$var reg 1 R# cin $end
$var reg 1 S# res $end
$var reg 1 T# cout $end
$upscope $end
$scope module fa3 $end
$var reg 1 U# a $end
$var reg 1 V# b $end
$var reg 1 W# cin $end
$var reg 1 X# res $end
$var reg 1 Y# cout $end
$upscope $end
$upscope $end
$scope module fa4 $end
$var reg 4 Z# a[3:0] $end
$var reg 4 [# b[3:0] $end
$var reg 1 \# cin $end
$var reg 4 ]# res[3:0] $end
$var reg 1 ^# cout $end
$var reg 5 _# c[4:0] $end
$scope module fa0 $end
$var reg 1 `# a $end
$var reg 1 a# b $end
$var reg 1 b# cin $end
$var reg 1 c# res $end
$var reg 1 d# cout $end
$upscope $end
$scope module fa1 $end
$var reg 1 e# a $end
$var reg 1 f# b $end
$var reg 1 g# cin $end
$var reg 1 h# res $end
$var reg 1 i# cout $end
$upscope $end
$scope module fa2 $end
$var reg 1 j# a $end
$var reg 1 k# b $end
$var reg 1 l# cin $end
$var reg 1 m# res $end
$var reg 1 n# cout $end
$upscope $end
$scope module fa3 $end
$var reg 1 o# a $end
$var reg 1 p# b $end
$var reg 1 q# cin $end
$var reg 1 r# res $end
$var reg 1 s# cout $end
$upscope $end
$upscope $end
$scope module fa5 $end
$var reg 4 t# a[3:0] $end
$var reg 4 u# b[3:0] $end
$var reg 1 v# cin $end
$var reg 4 w# res[3:0] $end
$var reg 1 x# cout $end
$var reg 5 y# c[4:0] $end
$scope module fa0 $end
$var reg 1 z# a $end
$var reg 1 {# b $end
$var reg 1 |# cin $end
$var reg 1 }# res $end
$var reg 1 !$ cout $end
$upscope $end
$scope module fa1 $end
$var reg 1 "$ a $end
$var reg 1 #$ b $end
$var reg 1 $$ cin $end
$var reg 1 %$ res $end
$var reg 1 &$ cout $end
$upscope $end
$scope module fa2 $end
$var reg 1 '$ a $end
$var reg 1 ($ b $end
$var reg 1 )$ cin $end
$var reg 1 *$ res $end
$var reg 1 +$ cout $end
$upscope $end
$scope module fa3 $end
$var reg 1 ,$ a $end
$var reg 1 -$ b $end
$var reg 1 .$ cin $end
$var reg 1 /$ res $end
$var reg 1 0$ cout $end
$upscope $end
$upscope $end
$scope module fa6 $end
$var reg 4 1$ a[3:0] $end
$var reg 4 2$ b[3:0] $end
$var reg 1 3$ cin $end
$var reg 4 4$ res[3:0] $end
$var reg 1 5$ cout $end
$var reg 5 6$ c[4:0] $end
$scope module fa0 $end
$var reg 1 7$ a $end
$var reg 1 8$ b $end
$var reg 1 9$ cin $end
$var reg 1 :$ res $end
$var reg 1 ;$ cout $end
$upscope $end
$scope module fa1 $end
$var reg 1 <$ a $end
$var reg 1 =$ b $end
$var reg 1 >$ cin $end
$var reg 1 ?$ res $end
$var reg 1 @$ cout $end
$upscope $end
$scope module fa2 $end
$var reg 1 A$ a $end
$var reg 1 B$ b $end
$var reg 1 C$ cin $end
$var reg 1 D$ res $end
$var reg 1 E$ cout $end
$upscope $end
$scope module fa3 $end
$var reg 1 F$ a $end
$var reg 1 G$ b $end
$var reg 1 H$ cin $end
$var reg 1 I$ res $end
$var reg 1 J$ cout $end
$upscope $end
$upscope $end
$scope module fa7 $end
$var reg 4 K$ a[3:0] $end
$var reg 4 L$ b[3:0] $end
$var reg 1 M$ cin $end
$var reg 4 N$ res[3:0] $end
$var reg 1 O$ cout $end
$var reg 5 P$ c[4:0] $end
$scope module fa0 $end
$var reg 1 Q$ a $end
$var reg 1 R$ b $end
$var reg 1 S$ cin $end
$var reg 1 T$ res $end
$var reg 1 U$ cout $end
$upscope $end
$scope module fa1 $end
$var reg 1 V$ a $end
$var reg 1 W$ b $end
$var reg 1 X$ cin $end
$var reg 1 Y$ res $end
$var reg 1 Z$ cout $end
$upscope $end
$scope module fa2 $end
$var reg 1 [$ a $end
$var reg 1 \$ b $end
$var reg 1 ]$ cin $end
$var reg 1 ^$ res $end
$var reg 1 _$ cout $end
$upscope $end
$scope module fa3 $end
$var reg 1 `$ a $end
$var reg 1 a$ b $end
$var reg 1 b$ cin $end
$var reg 1 c$ res $end
$var reg 1 d$ cout $end
$upscope $end
$upscope $end
$upscope $end
$upscope $end
$scope module exec2mem $end
$var reg 72 e$ din[71:0] $end
$var reg 72 f$ dout[71:0] $end
$var reg 1 g$ push $end
$var reg 1 h$ pop $end
$var reg 1 i$ full $end
$var reg 1 j$ empty $end
$var reg 1 k$ reset_n $end
$var reg 1 l$ ck $end
$var reg 1 m$ vdd $end
$var reg 1 n$ vss $end
$var reg 72 o$ temp_dout[71:0] $end
$var reg 32 p$ mem_adr[31:0] $end
$var reg 32 q$ mem_data[31:0] $end
$var reg 4 r$ mem_dest[3:0] $end
$var reg 1 s$ mem_lw $end
$var reg 1 t$ mem_lb $end
$var reg 1 u$ mem_sw $end
$var reg 1 v$ mem_sb $end
$upscope $end
$upscope $end
$enddefinitions $end
#0
U!
U"
1#
U$
U%
U&
U'
U(
U)
1*
U+
U,
U-
U.
U/
U0
01
U2
03
U4
b00001011110100110000111000000010 5
b00001101011111011011011101000000 6
bUUUUUUUUUUUUUUUUUUUUUUUUUUUUUUUU 7
b00000000000000000000000000000000 8
b00000000000000000000000000000000 9
b00000000000000000000000000000000 :
0;
0<
0=
1>
1?
0@
0A
0B
0C
0D
UE
0F
b0000 G
bUUUU H
bUUUU I
bUUUU J
b01 K
b00011 L
1M
0N
UO
UP
b00001011110100110000111000000010 Q
b00001101011111011011011101000000 R
bUUUU S
1T
UU
bUUUUUUUUUUUUUUUUUUUUUUUUUUUUUUUU V
bUUUU W
UX
UY
UZ
U[
U\
1]
U^
U_
U`
Ua
b00011 b
0c
Ud
Ue
0f
b01 g
b00000000000000000000000000000000 h
0i
0j
0k
1l
bUUUU m
1n
0o
b00000000000000000000000000000000 p
b00000000000000000000000000000000 q
b0000 r
0s
0t
0u
0v
Uw
Ux
0y
Uz
1{
0|
0}
0!"
1""
0#"
0$"
b00000000000000000000000000000000 %"
b00011010111110110110111010000000 &"
b00000000000000000000000000000000 '"
b00000000000000000000000000000000 ("
bUUUUUUUUUUUUUUUUUUUUUUUUUUUUUUUU )"
b00000000000000000000000000000000 *"
U+"
U,"
U-"
1."
U/"
U0"
U1"
U2"
b00011 3"
b00001101011111011011011101000000 4"
05"
b00011010111110110110111010000000 6"
07"
18"
09"
b00011010111110110110111010000000 :"
0;"
b00000000000000000000000000000000 <"
b00000000000000000000000000000000 ="
0>"
b01 ?"
b00000000000000000000000000000000 @"
0A"
1B"
0C"
0D"
1E"
0F"
b00000000000000000000000000000000 G"
0H"
b00000000000000000000000000000000 I"
b00000000000000000000000000000000 J"
0K"
b00000000000000000000000000000000 L"
0M"
bU00000000U N"
b0000 O"
b0000 P"
0Q"
b0000 R"
0S"
b0000U T"
0U"
0V"
0W"
0X"
0Y"
0Z"
0["
0\"
0]"
0^"
0_"
0`"
0a"
0b"
0c"
0d"
0e"
0f"
0g"
0h"
b0000 i"
b0000 j"
0k"
b0000 l"
0m"
b0000U n"
0o"
0p"
0q"
0r"
0s"
0t"
0u"
0v"
0w"
0x"
0y"
0z"
0{"
0|"
0}"
0!#
0"#
0##
0$#
0%#
b0000 &#
b0000 '#
0(#
b0000 )#
0*#
b0000U +#
0,#
0-#
0.#
0/#
00#
01#
02#
03#
04#
05#
06#
07#
08#
09#
0:#
0;#
0<#
0=#
0>#
0?#
b0000 @#
b0000 A#
0B#
b0000 C#
0D#
b0000U E#
0F#
0G#
0H#
0I#
0J#
0K#
0L#
0M#
0N#
0O#
0P#
0Q#
0R#
0S#
0T#
0U#
0V#
0W#
0X#
0Y#
b0000 Z#
b0000 [#
0\#
b0000 ]#
0^#
b0000U _#
0`#
0a#
0b#
0c#
0d#
0e#
0f#
0g#
0h#
0i#
0j#
0k#
0l#
0m#
0n#
0o#
0p#
0q#
0r#
0s#
b0000 t#
b0000 u#
0v#
b0000 w#
0x#
b0000U y#
0z#
0{#
0|#
0}#
0!$
0"$
0#$
0$$
0%$
0&$
0'$
0($
0)$
0*$
0+$
0,$
0-$
0.$
0/$
00$
b0000 1$
b0000 2$
03$
b0000 4$
05$
b0000U 6$
07$
08$
09$
0:$
0;$
0<$
0=$
0>$
0?$
0@$
0A$
0B$
0C$
0D$
0E$
0F$
0G$
0H$
0I$
0J$
b0000 K$
b0000 L$
0M$
b0000 N$
0O$
b0000U P$
0Q$
0R$
0S$
0T$
0U$
0V$
0W$
0X$
0Y$
0Z$
0[$
0\$
0]$
0^$
0_$
0`$
0a$
0b$
0c$
0d$
bUUUUUUUUUUUUUUUUUUUUUUUUUUUUUUUUUUUUUUUU00000000000000000000000000000000 e$
b000000000000000000000000000000000000000000000000000000000000000000000000 f$
Ug$
Uh$
Ui$
Uj$
Uk$
0l$
1m$
0n$
b000000000000000000000000000000000000000000000000000000000000000000000000 o$
bUUUUUUUUUUUUUUUUUUUUUUUUUUUUUUUU p$
bUUUUUUUUUUUUUUUUUUUUUUUUUUUUUUUU q$
bUUUU r$
Us$
Ut$
Uu$
Uv$
#500000
0"
13
b00001010110100110000111000000000 8
0>
0P
b00001010110100110000111000000000 h
0l
1y
0""
b00011010111110110110111010000000 %"
b00001011110100110000111000000010 '"
b00001010110100110000111000000000 ("
b00001011110100110000111000000010 *"
0+"
b00001011110100110000111000000010 <"
b00011010111110110110111010000000 ="
b00001010110100110000111000000000 @"
0B"
b00100110110011100111110010000010 G"
b00001011110100110000111000000010 I"
b00011010111110110110111010000000 J"
b00100110110011100111110010000010 L"
bU01100100U N"
b0010 O"
b0010 R"
1Z"
1]"
b1000 j"
b1000 l"
1"#
1$#
b1110 &#
b1110 '#
b1100 )#
1*#
b1110U +#
11#
12#
15#
16#
17#
18#
19#
1:#
1;#
1<#
1=#
1>#
1?#
b0110 A#
1B#
b0111 C#
1H#
1I#
1L#
1N#
1Q#
1S#
b0011 Z#
b1011 [#
b1110 ]#
b0011U _#
1`#
1a#
1d#
1e#
1f#
1g#
1h#
1i#
1l#
1m#
1p#
1r#
b1101 t#
b1111 u#
b1100 w#
1x#
b1111U y#
1z#
1{#
1!$
1#$
1$$
0%$
1&$
1'$
1($
1)$
1*$
1+$
1,$
1-$
1.$
1/$
10$
b1011 1$
b1010 2$
13$
b0110 4$
15$
b1011U 6$
17$
19$
0:$
1;$
1<$
1=$
1>$
1?$
1@$
1C$
1D$
1F$
1G$
1J$
b0001 L$
1M$
b0010 N$
b0001U P$
1R$
1S$
0T$
1U$
1X$
1Y$
bUUUUUUUUUUUUUUUUUUUUUUUUUUUUUUUUUUUUUUUU00001011110100110000111000000010 e$
0g$
1l$
#1000000
03
b00100110110011100111110010000010 8
b00 K
b00 g
b00100110110011100111110010000010 h
0y
b00100110110011100111110010000010 ("
b00 ?"
b00100110110011100111110010000010 @"
0l$
#1500000
13
1y
1l$
#2000000
03
b00011011111110110110111010000010 8
b10 K
b10 g
b00011011111110110110111010000010 h
0y
b00011011111110110110111010000010 ("
b10 ?"
b00011011111110110110111010000010 @"
0l$
#2500000
13
1y
1l$
#3000000
03
b00010001001010000110000010000010 8
b11 K
b11 g
b00010001001010000110000010000010 h
0y
b00010001001010000110000010000010 ("
b11 ?"
b00010001001010000110000010000010 @"
0l$
#3500000
13
1y
1l$
#4000000
03
b00001010110100110000111000000000 8
b01 K
b01 g
b00001010110100110000111000000000 h
0y
b00001010110100110000111000000000 ("
b01 ?"
b00001010110100110000111000000000 @"
0l$
#4500000
13
1y
1l$
#5000000
03
b00100110110011100111110010000010 8
b00 K
b00 g
b00100110110011100111110010000010 h
0y
b00100110110011100111110010000010 ("
b00 ?"
b00100110110011100111110010000010 @"
0l$
#5500000
13
1y
1l$
#6000000
1$
03
b00001010110100110000111000000000 8
1@
b01 K
1U
b01 g
b00001010110100110000111000000000 h
1o
0y
b00001010110100110000111000000000 ("
b01 ?"
b00001010110100110000111000000000 @"
0l$
#6500000
13
1y
1l$
#7000000
03
b00100110110011100111110010000010 8
b00 K
b00 g
b00100110110011100111110010000010 h
0y
b00100110110011100111110010000010 ("
b00 ?"
b00100110110011100111110010000010 @"
0l$
#7500000
13
1y
1l$
#8000000
03
b00011011111110110110111010000010 8
b10 K
b10 g
b00011011111110110110111010000010 h
0y
b00011011111110110110111010000010 ("
b10 ?"
b00011011111110110110111010000010 @"
0l$
#8500000
13
1y
1l$
#9000000
03
b00010001001010000110000010000010 8
b11 K
b11 g
b00010001001010000110000010000010 h
0y
b00010001001010000110000010000010 ("
b11 ?"
b00010001001010000110000010000010 @"
0l$
#9500000
13
1y
1l$
#10000000
03
b00001010110100110000111000000000 8
b01 K
b01 g
b00001010110100110000111000000000 h
0y
b00001010110100110000111000000000 ("
b01 ?"
b00001010110100110000111000000000 @"
0l$
#10500000
13
1y
1l$
#11000000
03
b00100110110011100111110010000010 8
b00 K
b00 g
b00100110110011100111110010000010 h
0y
b00100110110011100111110010000010 ("
b00 ?"
b00100110110011100111110010000010 @"
0l$
#11500000
13
1y
1l$
#12000000
03
b00001010110100110000111000000000 8
b01 K
b01 g
b00001010110100110000111000000000 h
0y
b00001010110100110000111000000000 ("
b01 ?"
b00001010110100110000111000000000 @"
0l$
#12500000
13
1y
1l$
#13000000
03
b00100110110011100111110010000010 8
b00 K
b00 g
b00100110110011100111110010000010 h
0y
b00100110110011100111110010000010 ("
b00 ?"
b00100110110011100111110010000010 @"
0l$
#13500000
13
1y
1l$
#14000000
03
b00011011111110110110111010000010 8
b10 K
b10 g
b00011011111110110110111010000010 h
0y
b00011011111110110110111010000010 ("
b10 ?"
b00011011111110110110111010000010 @"
0l$
#14500000
13
1y
1l$
#15000000
03
b00010001001010000110000010000010 8
b11 K
b11 g
b00010001001010000110000010000010 h
0y
b00010001001010000110000010000010 ("
b11 ?"
b00010001001010000110000010000010 @"
0l$
#15500000
13
1y
1l$
#16000000
03
b00001010110100110000111000000000 8
b01 K
b01 g
b00001010110100110000111000000000 h
0y
b00001010110100110000111000000000 ("
b01 ?"
b00001010110100110000111000000000 @"
0l$
#16500000
13
1y
1l$
#17000000
03
b00100110110011100111110010000010 8
b00 K
b00 g
b00100110110011100111110010000010 h
0y
b00100110110011100111110010000010 ("
b00 ?"
b00100110110011100111110010000010 @"
0l$
#17500000
13
1y
1l$
#18000000
03
b00001010110100110000111000000000 8
b01 K
b01 g
b00001010110100110000111000000000 h
0y
b00001010110100110000111000000000 ("
b01 ?"
b00001010110100110000111000000000 @"
0l$
#18500000
13
1y
1l$
#19000000
03
b00100110110011100111110010000010 8
b00 K
b00 g
b00100110110011100111110010000010 h
0y
b00100110110011100111110010000010 ("
b00 ?"
b00100110110011100111110010000010 @"
0l$
#19500000
13
1y
1l$
#20000000
03
b00011011111110110110111010000010 8
b10 K
b10 g
b00011011111110110110111010000010 h
0y
b00011011111110110110111010000010 ("
b10 ?"
b00011011111110110110111010000010 @"
0l$
#20500000
13
1y
1l$
#21000000
03
b00010001001010000110000010000010 8
b11 K
b11 g
b00010001001010000110000010000010 h
0y
b00010001001010000110000010000010 ("
b11 ?"
b00010001001010000110000010000010 @"
0l$
#21500000
13
1y
1l$
#22000000
03
b00001010110100110000111000000000 8
b01 K
b01 g
b00001010110100110000111000000000 h
0y
b00001010110100110000111000000000 ("
b01 ?"
b00001010110100110000111000000000 @"
0l$
#22500000
13
1y
1l$
#23000000
03
b00100110110011100111110010000010 8
b00 K
b00 g
b00100110110011100111110010000010 h
0y
b00100110110011100111110010000010 ("
b00 ?"
b00100110110011100111110010000010 @"
0l$
#23500000
13
1y
1l$
#24000000
03
b00001010110100110000111000000000 8
b01 K
b01 g
b00001010110100110000111000000000 h
0y
b00001010110100110000111000000000 ("
b01 ?"
b00001010110100110000111000000000 @"
0l$
#24500000
13
1y
1l$
#25000000
03
b00100110110011100111110010000010 8
b00 K
b00 g
b00100110110011100111110010000010 h
0y
b00100110110011100111110010000010 ("
b00 ?"
b00100110110011100111110010000010 @"
0l$
#25500000
13
1y
1l$
#26000000
03
b00011011111110110110111010000010 8
b10 K
b10 g
b00011011111110110110111010000010 h
0y
b00011011111110110110111010000010 ("
b10 ?"
b00011011111110110110111010000010 @"
0l$
#26500000
13
1y
1l$
#27000000
03
b00010001001010000110000010000010 8
b11 K
b11 g
b00010001001010000110000010000010 h
0y
b00010001001010000110000010000010 ("
b11 ?"
b00010001001010000110000010000010 @"
0l$
#27500000
13
1y
1l$
#28000000
03
b00001010110100110000111000000000 8
b01 K
b01 g
b00001010110100110000111000000000 h
0y
b00001010110100110000111000000000 ("
b01 ?"
b00001010110100110000111000000000 @"
0l$
#28500000
13
1y
1l$
#29000000
03
b00100110110011100111110010000010 8
b00 K
b00 g
b00100110110011100111110010000010 h
0y
b00100110110011100111110010000010 ("
b00 ?"
b00100110110011100111110010000010 @"
0l$
#29500000
13
1y
1l$
#30000000
03
b00001010110100110000111000000000 8
b01 K
b01 g
b00001010110100110000111000000000 h
0y
b00001010110100110000111000000000 ("
b01 ?"
b00001010110100110000111000000000 @"
0l$
#30500000
13
1y
1l$
#31000000
03
b00100110110011100111110010000010 8
b00 K
b00 g
b00100110110011100111110010000010 h
0y
b00100110110011100111110010000010 ("
b00 ?"
b00100110110011100111110010000010 @"
0l$
#31500000
13
1y
1l$
#32000000
03
b00011011111110110110111010000010 8
b10 K
b10 g
b00011011111110110110111010000010 h
0y
b00011011111110110110111010000010 ("
b10 ?"
b00011011111110110110111010000010 @"
0l$
#32500000
13
1y
1l$
#33000000
03
b00010001001010000110000010000010 8
b11 K
b11 g
b00010001001010000110000010000010 h
0y
b00010001001010000110000010000010 ("
b11 ?"
b00010001001010000110000010000010 @"
0l$
#33500000
13
1y
1l$
#34000000
03
b00001010110100110000111000000000 8
b01 K
b01 g
b00001010110100110000111000000000 h
0y
b00001010110100110000111000000000 ("
b01 ?"
b00001010110100110000111000000000 @"
0l$
#34500000
13
1y
1l$
#35000000
03
b00100110110011100111110010000010 8
b00 K
b00 g
b00100110110011100111110010000010 h
0y
b00100110110011100111110010000010 ("
b00 ?"
b00100110110011100111110010000010 @"
0l$
#35500000
13
1y
1l$
#36000000
03
b00001010110100110000111000000000 8
b01 K
b01 g
b00001010110100110000111000000000 h
0y
b00001010110100110000111000000000 ("
b01 ?"
b00001010110100110000111000000000 @"
0l$
#36500000
13
1y
1l$
#37000000
03
b00100110110011100111110010000010 8
b00 K
b00 g
b00100110110011100111110010000010 h
0y
b00100110110011100111110010000010 ("
b00 ?"
b00100110110011100111110010000010 @"
0l$
#37500000
13
1y
1l$
#38000000
03
b00011011111110110110111010000010 8
b10 K
b10 g
b00011011111110110110111010000010 h
0y
b00011011111110110110111010000010 ("
b10 ?"
b00011011111110110110111010000010 @"
0l$
#38500000
13
1y
1l$
#39000000
03
b00010001001010000110000010000010 8
b11 K
b11 g
b00010001001010000110000010000010 h
0y
b00010001001010000110000010000010 ("
b11 ?"
b00010001001010000110000010000010 @"
0l$
#39500000
13
1y
1l$
#40000000
03
b00001010110100110000111000000000 8
b01 K
b01 g
b00001010110100110000111000000000 h
0y
b00001010110100110000111000000000 ("
b01 ?"
b00001010110100110000111000000000 @"
0l$
#40500000
13
1y
1l$
#41000000
03
b00100110110011100111110010000010 8
b00 K
b00 g
b00100110110011100111110010000010 h
0y
b00100110110011100111110010000010 ("
b00 ?"
b00100110110011100111110010000010 @"
0l$
#41500000
13
1y
1l$
#42000000
03
b00001010110100110000111000000000 8
b01 K
b01 g
b00001010110100110000111000000000 h
0y
b00001010110100110000111000000000 ("
b01 ?"
b00001010110100110000111000000000 @"
0l$
#42500000
13
1y
1l$
#43000000
03
b00100110110011100111110010000010 8
b00 K
b00 g
b00100110110011100111110010000010 h
0y
b00100110110011100111110010000010 ("
b00 ?"
b00100110110011100111110010000010 @"
0l$
#43500000
13
1y
1l$
#44000000
03
b00011011111110110110111010000010 8
b10 K
b10 g
b00011011111110110110111010000010 h
0y
b00011011111110110110111010000010 ("
b10 ?"
b00011011111110110110111010000010 @"
0l$
#44500000
13
1y
1l$
#45000000
03
b00010001001010000110000010000010 8
b11 K
b11 g
b00010001001010000110000010000010 h
0y
b00010001001010000110000010000010 ("
b11 ?"
b00010001001010000110000010000010 @"
0l$
#45500000
13
1y
1l$
#46000000
03
b00001010110100110000111000000000 8
b01 K
b01 g
b00001010110100110000111000000000 h
0y
b00001010110100110000111000000000 ("
b01 ?"
b00001010110100110000111000000000 @"
0l$
#46500000
13
1y
1l$
#47000000
03
b00100110110011100111110010000010 8
b00 K
b00 g
b00100110110011100111110010000010 h
0y
b00100110110011100111110010000010 ("
b00 ?"
b00100110110011100111110010000010 @"
0l$
#47500000
13
1y
1l$
#48000000
03
b00001010110100110000111000000000 8
b01 K
b01 g
b00001010110100110000111000000000 h
0y
b00001010110100110000111000000000 ("
b01 ?"
b00001010110100110000111000000000 @"
0l$
#48500000
13
1y
1l$
#49000000
03
b00100110110011100111110010000010 8
b00 K
b00 g
b00100110110011100111110010000010 h
0y
b00100110110011100111110010000010 ("
b00 ?"
b00100110110011100111110010000010 @"
0l$
#49500000
13
1y
1l$
