Simulations/reg.vcd
$date
  Thu Dec 21 15:25:57 2023
$end
$version
  GHDL v0
$end
$timescale
  1 fs
$end
$var reg 32 ! wdata1[31:0] $end
$var reg 4 " wadr1[3:0] $end
$var reg 1 # wen1 $end
$var reg 32 $ wdata2[31:0] $end
$var reg 4 % wadr2[3:0] $end
$var reg 1 & wen2 $end
$var reg 1 ' wcry $end
$var reg 1 ( wzero $end
$var reg 1 ) wneg $end
$var reg 1 * wovr $end
$var reg 1 + cspr_wb $end
$var reg 32 , reg_rd1[31:0] $end
$var reg 4 - radr1[3:0] $end
$var reg 1 . reg_v1 $end
$var reg 32 / reg_rd2[31:0] $end
$var reg 4 0 radr2[3:0] $end
$var reg 1 1 reg_v2 $end
$var reg 32 2 reg_rd3[31:0] $end
$var reg 4 3 radr3[3:0] $end
$var reg 1 4 reg_v3 $end
$var reg 1 5 reg_cry $end
$var reg 1 6 reg_zero $end
$var reg 1 7 reg_neg $end
$var reg 1 8 reg_cznv $end
$var reg 1 9 reg_ovr $end
$var reg 1 : reg_vv $end
$var reg 4 ; inval_adr1[3:0] $end
$var reg 1 < inval1 $end
$var reg 4 = inval_adr2[3:0] $end
$var reg 1 > inval2 $end
$var reg 1 ? inval_czn $end
$var reg 1 @ inval_ovr $end
$var reg 32 A reg_pc[31:0] $end
$var reg 1 B reg_pcv $end
$var reg 1 C inc_pc $end
$var reg 1 D ck $end
$var reg 1 E reset_n $end
$var reg 1 F vdd $end
$var reg 1 G vss $end
$scope module reg_stage $end
$var reg 32 H wdata1[31:0] $end
$var reg 4 I wadr1[3:0] $end
$var reg 1 J wen1 $end
$var reg 32 K wdata2[31:0] $end
$var reg 4 L wadr2[3:0] $end
$var reg 1 M wen2 $end
$var reg 1 N wcry $end
$var reg 1 O wzero $end
$var reg 1 P wneg $end
$var reg 1 Q wovr $end
$var reg 1 R cspr_wb $end
$var reg 32 S reg_rd1[31:0] $end
$var reg 4 T radr1[3:0] $end
$var reg 1 U reg_v1 $end
$var reg 32 V reg_rd2[31:0] $end
$var reg 4 W radr2[3:0] $end
$var reg 1 X reg_v2 $end
$var reg 32 Y reg_rd3[31:0] $end
$var reg 4 Z radr3[3:0] $end
$var reg 1 [ reg_v3 $end
$var reg 1 \ reg_cry $end
$var reg 1 ] reg_zero $end
$var reg 1 ^ reg_neg $end
$var reg 1 _ reg_cznv $end
$var reg 1 ` reg_ovr $end
$var reg 1 a reg_vv $end
$var reg 4 b inval_adr1[3:0] $end
$var reg 1 c inval1 $end
$var reg 4 d inval_adr2[3:0] $end
$var reg 1 e inval2 $end
$var reg 1 f inval_czn $end
$var reg 1 g inval_ovr $end
$var reg 32 h reg_pc[31:0] $end
$var reg 1 i reg_pcv $end
$var reg 1 j inc_pc $end
$var reg 1 k ck $end
$var reg 1 l reset_n $end
$var reg 1 m vdd $end
$var reg 1 n vss $end
$comment registerfile is not handled $end
$var reg 16 o register_valid[0:15] $end
$var reg 1 p flagc_int $end
$var reg 1 q validflagc_int $end
$var reg 1 r flagz_int $end
$var reg 1 s validflagz_int $end
$var reg 1 t flagn_int $end
$var reg 1 u validflagn_int $end
$var reg 1 v flagv_int $end
$var reg 1 w validflagv_int $end
$upscope $end
$enddefinitions $end
#0
b00000000000000000000000000000000 !
b1111 "
1#
b00000000000000000000000000001000 $
b1111 %
1&
1'
1(
1)
1*
1+
bUUUUUUUUUUUUUUUUUUUUUUUUUUUUUUUU ,
b1111 -
U.
bUUUUUUUUUUUUUUUUUUUUUUUUUUUUUUUU /
b1111 0
U1
bUUUUUUUUUUUUUUUUUUUUUUUUUUUUUUUU 2
b1111 3
U4
U5
U6
U7
U8
U9
U:
b1111 ;
1<
b1111 =
1>
U?
U@
bUUUUUUUUUUUUUUUUUUUUUUUUUUUUUUUU A
UB
0C
1D
0E
0F
0G
b00000000000000000000000000000000 H
b1111 I
1J
b00000000000000000000000000001000 K
b1111 L
1M
1N
1O
1P
1Q
1R
bUUUUUUUUUUUUUUUUUUUUUUUUUUUUUUUU S
b1111 T
UU
bUUUUUUUUUUUUUUUUUUUUUUUUUUUUUUUU V
b1111 W
UX
bUUUUUUUUUUUUUUUUUUUUUUUUUUUUUUUU Y
b1111 Z
U[
U\
U]
U^
U_
U`
Ua
b1111 b
1c
b1111 d
1e
Uf
Ug
bUUUUUUUUUUUUUUUUUUUUUUUUUUUUUUUU h
Ui
0j
1k
0l
0m
0n
b1111111111111111 o
0p
1q
0r
1s
0t
1u
0v
1w
#2000000
0D
0k
#4000000
1D
1k
#6000000
0D
0k
#8000000
1D
1k
#10000000
0D
1E
0k
1l
#12000000
b00000000000000000000000000000000 ,
1.
b00000000000000000000000000000000 /
11
b00000000000000000000000000000000 2
14
05
06
07
18
09
1:
b00000000000000000000000000000000 A
1B
1D
b00000000000000000000000000000000 S
1U
b00000000000000000000000000000000 V
1X
b00000000000000000000000000000000 Y
1[
0\
0]
0^
1_
0`
1a
b00000000000000000000000000000000 h
1i
1k
b1111111111111110 o
1p
1r
1t
1v
#14000000
0D
0k
#16000000
0.
01
04
15
16
17
19
0B
1D
0U
0X
0[
1\
1]
1^
1`
0i
1k
#18000000
0D
0k
#20000000
1D
1k
#22000000
0D
0k
#24000000
1D
1k
#26000000
0D
0k
#28000000
1D
1k
#30000000
0D
0k
#32000000
1D
1k
#34000000
0D
0k
#36000000
1D
1k
#38000000
0D
0k
#40000000
1D
1k
#42000000
0D
0k
#44000000
1D
1k
#46000000
0D
0k
#48000000
1D
1k
#50000000
0D
0k
#52000000
1D
1k
#54000000
0D
0k
#56000000
1D
1k
#58000000
0D
0k
#60000000
1D
1k
#62000000
0D
0k
#64000000
1D
1k
#66000000
0D
0k
#68000000
1D
1k
#70000000
0D
0k
#72000000
1D
1k
#74000000
0D
0k
#76000000
1D
1k
#78000000
0D
0k
#80000000
1D
1k
#82000000
0D
0k
#84000000
1D
1k
#86000000
0D
0k
#88000000
1D
1k
#90000000
0D
0k
#92000000
1D
1k
#94000000
0D
0k
#96000000
1D
1k
#98000000
0D
0k
#100000000
1C
1D
1j
1k
#102000000
0D
0k
#104000000
b00000000000000000000000000000100 ,
b00000000000000000000000000000100 /
b00000000000000000000000000000100 2
b00000000000000000000000000000100 A
1D
b00000000000000000000000000000100 S
b00000000000000000000000000000100 V
b00000000000000000000000000000100 Y
b00000000000000000000000000000100 h
1k
#106000000
0D
0k
#108000000
b00000000000000000000000000001000 ,
b00000000000000000000000000001000 /
b00000000000000000000000000001000 2
b00000000000000000000000000001000 A
1D
b00000000000000000000000000001000 S
b00000000000000000000000000001000 V
b00000000000000000000000000001000 Y
b00000000000000000000000000001000 h
1k
#110000000
0D
0k
#112000000
b00000000000000000000000000001100 ,
b00000000000000000000000000001100 /
b00000000000000000000000000001100 2
b00000000000000000000000000001100 A
1D
b00000000000000000000000000001100 S
b00000000000000000000000000001100 V
b00000000000000000000000000001100 Y
b00000000000000000000000000001100 h
1k
#114000000
0D
0k
#116000000
b00000000000000000000000000010000 ,
b00000000000000000000000000010000 /
b00000000000000000000000000010000 2
b00000000000000000000000000010000 A
1D
b00000000000000000000000000010000 S
b00000000000000000000000000010000 V
b00000000000000000000000000010000 Y
b00000000000000000000000000010000 h
1k
#118000000
0D
0k
#120000000
b00000000000000000000000000010100 ,
b00000000000000000000000000010100 /
b00000000000000000000000000010100 2
b00000000000000000000000000010100 A
1D
b00000000000000000000000000010100 S
b00000000000000000000000000010100 V
b00000000000000000000000000010100 Y
b00000000000000000000000000010100 h
1k
#122000000
0D
0k
#124000000
b00000000000000000000000000011000 ,
b00000000000000000000000000011000 /
b00000000000000000000000000011000 2
b00000000000000000000000000011000 A
1D
b00000000000000000000000000011000 S
b00000000000000000000000000011000 V
b00000000000000000000000000011000 Y
b00000000000000000000000000011000 h
1k
#126000000
0D
0k
#128000000
b00000000000000000000000000011100 ,
b00000000000000000000000000011100 /
b00000000000000000000000000011100 2
b00000000000000000000000000011100 A
1D
b00000000000000000000000000011100 S
b00000000000000000000000000011100 V
b00000000000000000000000000011100 Y
b00000000000000000000000000011100 h
1k
#130000000
0D
0k
#132000000
b00000000000000000000000000100000 ,
b00000000000000000000000000100000 /
b00000000000000000000000000100000 2
b00000000000000000000000000100000 A
1D
b00000000000000000000000000100000 S
b00000000000000000000000000100000 V
b00000000000000000000000000100000 Y
b00000000000000000000000000100000 h
1k
#134000000
0D
0k
#136000000
b00000000000000000000000000100100 ,
b00000000000000000000000000100100 /
b00000000000000000000000000100100 2
b00000000000000000000000000100100 A
1D
b00000000000000000000000000100100 S
b00000000000000000000000000100100 V
b00000000000000000000000000100100 Y
b00000000000000000000000000100100 h
1k
#138000000
0D
0k
#140000000
b00000000000000000000000000101000 ,
b00000000000000000000000000101000 /
b00000000000000000000000000101000 2
b00000000000000000000000000101000 A
1D
b00000000000000000000000000101000 S
b00000000000000000000000000101000 V
b00000000000000000000000000101000 Y
b00000000000000000000000000101000 h
1k
#142000000
0D
0k
#144000000
b00000000000000000000000000101100 ,
b00000000000000000000000000101100 /
b00000000000000000000000000101100 2
b00000000000000000000000000101100 A
1D
b00000000000000000000000000101100 S
b00000000000000000000000000101100 V
b00000000000000000000000000101100 Y
b00000000000000000000000000101100 h
1k
#146000000
0D
0k
#148000000
b00000000000000000000000000110000 ,
b00000000000000000000000000110000 /
b00000000000000000000000000110000 2
b00000000000000000000000000110000 A
1D
b00000000000000000000000000110000 S
b00000000000000000000000000110000 V
b00000000000000000000000000110000 Y
b00000000000000000000000000110000 h
1k
#150000000
0D
0k
#152000000
b00000000000000000000000000110100 ,
b00000000000000000000000000110100 /
b00000000000000000000000000110100 2
b00000000000000000000000000110100 A
1D
b00000000000000000000000000110100 S
b00000000000000000000000000110100 V
b00000000000000000000000000110100 Y
b00000000000000000000000000110100 h
1k
#154000000
0D
0k
#156000000
b00000000000000000000000000111000 ,
b00000000000000000000000000111000 /
b00000000000000000000000000111000 2
b00000000000000000000000000111000 A
1D
b00000000000000000000000000111000 S
b00000000000000000000000000111000 V
b00000000000000000000000000111000 Y
b00000000000000000000000000111000 h
1k
#158000000
0D
0k
#160000000
b00000000000000000000000000111100 ,
b00000000000000000000000000111100 /
b00000000000000000000000000111100 2
b00000000000000000000000000111100 A
1D
b00000000000000000000000000111100 S
b00000000000000000000000000111100 V
b00000000000000000000000000111100 Y
b00000000000000000000000000111100 h
1k
#162000000
0D
0k
#164000000
b00000000000000000000000001000000 ,
b00000000000000000000000001000000 /
b00000000000000000000000001000000 2
b00000000000000000000000001000000 A
1D
b00000000000000000000000001000000 S
b00000000000000000000000001000000 V
b00000000000000000000000001000000 Y
b00000000000000000000000001000000 h
1k
#166000000
0D
0k
#168000000
b00000000000000000000000001000100 ,
b00000000000000000000000001000100 /
b00000000000000000000000001000100 2
b00000000000000000000000001000100 A
1D
b00000000000000000000000001000100 S
b00000000000000000000000001000100 V
b00000000000000000000000001000100 Y
b00000000000000000000000001000100 h
1k
#170000000
0D
0k
#172000000
b00000000000000000000000001001000 ,
b00000000000000000000000001001000 /
b00000000000000000000000001001000 2
b00000000000000000000000001001000 A
1D
b00000000000000000000000001001000 S
b00000000000000000000000001001000 V
b00000000000000000000000001001000 Y
b00000000000000000000000001001000 h
1k
#174000000
0D
0k
#176000000
b00000000000000000000000001001100 ,
b00000000000000000000000001001100 /
b00000000000000000000000001001100 2
b00000000000000000000000001001100 A
1D
b00000000000000000000000001001100 S
b00000000000000000000000001001100 V
b00000000000000000000000001001100 Y
b00000000000000000000000001001100 h
1k
#178000000
0D
0k
#180000000
b00000000000000000000000001010000 ,
b00000000000000000000000001010000 /
b00000000000000000000000001010000 2
b00000000000000000000000001010000 A
1D
b00000000000000000000000001010000 S
b00000000000000000000000001010000 V
b00000000000000000000000001010000 Y
b00000000000000000000000001010000 h
1k
#182000000
0D
0k
#184000000
b00000000000000000000000001010100 ,
b00000000000000000000000001010100 /
b00000000000000000000000001010100 2
b00000000000000000000000001010100 A
1D
b00000000000000000000000001010100 S
b00000000000000000000000001010100 V
b00000000000000000000000001010100 Y
b00000000000000000000000001010100 h
1k
#186000000
0D
0k
#188000000
b00000000000000000000000001011000 ,
b00000000000000000000000001011000 /
b00000000000000000000000001011000 2
b00000000000000000000000001011000 A
1D
b00000000000000000000000001011000 S
b00000000000000000000000001011000 V
b00000000000000000000000001011000 Y
b00000000000000000000000001011000 h
1k
#190000000
0D
0k
#192000000
b00000000000000000000000001011100 ,
b00000000000000000000000001011100 /
b00000000000000000000000001011100 2
b00000000000000000000000001011100 A
1D
b00000000000000000000000001011100 S
b00000000000000000000000001011100 V
b00000000000000000000000001011100 Y
b00000000000000000000000001011100 h
1k
#194000000
0D
0k
#196000000
b00000000000000000000000001100000 ,
b00000000000000000000000001100000 /
b00000000000000000000000001100000 2
b00000000000000000000000001100000 A
1D
b00000000000000000000000001100000 S
b00000000000000000000000001100000 V
b00000000000000000000000001100000 Y
b00000000000000000000000001100000 h
1k
#198000000
0D
0k
#200000000
b00000000000000000000000001100100 ,
b00000000000000000000000001100100 /
b00000000000000000000000001100100 2
b00000000000000000000000001100100 A
1D
b00000000000000000000000001100100 S
b00000000000000000000000001100100 V
b00000000000000000000000001100100 Y
b00000000000000000000000001100100 h
1k
#202000000
0D
0k
#204000000
b00000000000000000000000001101000 ,
b00000000000000000000000001101000 /
b00000000000000000000000001101000 2
b00000000000000000000000001101000 A
1D
b00000000000000000000000001101000 S
b00000000000000000000000001101000 V
b00000000000000000000000001101000 Y
b00000000000000000000000001101000 h
1k
#206000000
0D
0k
#208000000
b00000000000000000000000001101100 ,
b00000000000000000000000001101100 /
b00000000000000000000000001101100 2
b00000000000000000000000001101100 A
1D
b00000000000000000000000001101100 S
b00000000000000000000000001101100 V
b00000000000000000000000001101100 Y
b00000000000000000000000001101100 h
1k
#210000000
0D
0k
#212000000
b00000000000000000000000001110000 ,
b00000000000000000000000001110000 /
b00000000000000000000000001110000 2
b00000000000000000000000001110000 A
1D
b00000000000000000000000001110000 S
b00000000000000000000000001110000 V
b00000000000000000000000001110000 Y
b00000000000000000000000001110000 h
1k
#214000000
0D
0k
#216000000
b00000000000000000000000001110100 ,
b00000000000000000000000001110100 /
b00000000000000000000000001110100 2
b00000000000000000000000001110100 A
1D
b00000000000000000000000001110100 S
b00000000000000000000000001110100 V
b00000000000000000000000001110100 Y
b00000000000000000000000001110100 h
1k
#218000000
0D
0k
#220000000
b00000000000000000000000001111000 ,
b00000000000000000000000001111000 /
b00000000000000000000000001111000 2
b00000000000000000000000001111000 A
1D
b00000000000000000000000001111000 S
b00000000000000000000000001111000 V
b00000000000000000000000001111000 Y
b00000000000000000000000001111000 h
1k
#222000000
0D
0k
#224000000
b00000000000000000000000001111100 ,
b00000000000000000000000001111100 /
b00000000000000000000000001111100 2
b00000000000000000000000001111100 A
1D
b00000000000000000000000001111100 S
b00000000000000000000000001111100 V
b00000000000000000000000001111100 Y
b00000000000000000000000001111100 h
1k
#226000000
0D
0k
#228000000
b00000000000000000000000010000000 ,
b00000000000000000000000010000000 /
b00000000000000000000000010000000 2
b00000000000000000000000010000000 A
1D
b00000000000000000000000010000000 S
b00000000000000000000000010000000 V
b00000000000000000000000010000000 Y
b00000000000000000000000010000000 h
1k
#230000000
0D
0k
#232000000
b00000000000000000000000010000100 ,
b00000000000000000000000010000100 /
b00000000000000000000000010000100 2
b00000000000000000000000010000100 A
1D
b00000000000000000000000010000100 S
b00000000000000000000000010000100 V
b00000000000000000000000010000100 Y
b00000000000000000000000010000100 h
1k
#234000000
0D
0k
#236000000
b00000000000000000000000010001000 ,
b00000000000000000000000010001000 /
b00000000000000000000000010001000 2
b00000000000000000000000010001000 A
1D
b00000000000000000000000010001000 S
b00000000000000000000000010001000 V
b00000000000000000000000010001000 Y
b00000000000000000000000010001000 h
1k
#238000000
0D
0k
#240000000
b00000000000000000000000010001100 ,
b00000000000000000000000010001100 /
b00000000000000000000000010001100 2
b00000000000000000000000010001100 A
1D
b00000000000000000000000010001100 S
b00000000000000000000000010001100 V
b00000000000000000000000010001100 Y
b00000000000000000000000010001100 h
1k
#242000000
0D
0k
#244000000
b00000000000000000000000010010000 ,
b00000000000000000000000010010000 /
b00000000000000000000000010010000 2
b00000000000000000000000010010000 A
1D
b00000000000000000000000010010000 S
b00000000000000000000000010010000 V
b00000000000000000000000010010000 Y
b00000000000000000000000010010000 h
1k
#246000000
0D
0k
#248000000
b00000000000000000000000010010100 ,
b00000000000000000000000010010100 /
b00000000000000000000000010010100 2
b00000000000000000000000010010100 A
1D
b00000000000000000000000010010100 S
b00000000000000000000000010010100 V
b00000000000000000000000010010100 Y
b00000000000000000000000010010100 h
1k
#250000000
0D
0k
#252000000
b00000000000000000000000010011000 ,
b00000000000000000000000010011000 /
b00000000000000000000000010011000 2
b00000000000000000000000010011000 A
1D
b00000000000000000000000010011000 S
b00000000000000000000000010011000 V
b00000000000000000000000010011000 Y
b00000000000000000000000010011000 h
1k
#254000000
0D
0k
#256000000
b00000000000000000000000010011100 ,
b00000000000000000000000010011100 /
b00000000000000000000000010011100 2
b00000000000000000000000010011100 A
1D
b00000000000000000000000010011100 S
b00000000000000000000000010011100 V
b00000000000000000000000010011100 Y
b00000000000000000000000010011100 h
1k
#258000000
0D
0k
#260000000
b00000000000000000000000010100000 ,
b00000000000000000000000010100000 /
b00000000000000000000000010100000 2
b00000000000000000000000010100000 A
1D
b00000000000000000000000010100000 S
b00000000000000000000000010100000 V
b00000000000000000000000010100000 Y
b00000000000000000000000010100000 h
1k
#262000000
0D
0k
#264000000
b00000000000000000000000010100100 ,
b00000000000000000000000010100100 /
b00000000000000000000000010100100 2
b00000000000000000000000010100100 A
1D
b00000000000000000000000010100100 S
b00000000000000000000000010100100 V
b00000000000000000000000010100100 Y
b00000000000000000000000010100100 h
1k
#266000000
0D
0k
#268000000
b00000000000000000000000010101000 ,
b00000000000000000000000010101000 /
b00000000000000000000000010101000 2
b00000000000000000000000010101000 A
1D
b00000000000000000000000010101000 S
b00000000000000000000000010101000 V
b00000000000000000000000010101000 Y
b00000000000000000000000010101000 h
1k
#270000000
0D
0k
#272000000
b00000000000000000000000010101100 ,
b00000000000000000000000010101100 /
b00000000000000000000000010101100 2
b00000000000000000000000010101100 A
1D
b00000000000000000000000010101100 S
b00000000000000000000000010101100 V
b00000000000000000000000010101100 Y
b00000000000000000000000010101100 h
1k
#274000000
0D
0k
#276000000
b00000000000000000000000010110000 ,
b00000000000000000000000010110000 /
b00000000000000000000000010110000 2
b00000000000000000000000010110000 A
1D
b00000000000000000000000010110000 S
b00000000000000000000000010110000 V
b00000000000000000000000010110000 Y
b00000000000000000000000010110000 h
1k
#278000000
0D
0k
#280000000
b00000000000000000000000010110100 ,
b00000000000000000000000010110100 /
b00000000000000000000000010110100 2
b00000000000000000000000010110100 A
1D
b00000000000000000000000010110100 S
b00000000000000000000000010110100 V
b00000000000000000000000010110100 Y
b00000000000000000000000010110100 h
1k
#282000000
0D
0k
#284000000
b00000000000000000000000010111000 ,
b00000000000000000000000010111000 /
b00000000000000000000000010111000 2
b00000000000000000000000010111000 A
1D
b00000000000000000000000010111000 S
b00000000000000000000000010111000 V
b00000000000000000000000010111000 Y
b00000000000000000000000010111000 h
1k
#286000000
0D
0k
#288000000
b00000000000000000000000010111100 ,
b00000000000000000000000010111100 /
b00000000000000000000000010111100 2
b00000000000000000000000010111100 A
1D
b00000000000000000000000010111100 S
b00000000000000000000000010111100 V
b00000000000000000000000010111100 Y
b00000000000000000000000010111100 h
1k
#290000000
0D
0k
#292000000
b00000000000000000000000011000000 ,
b00000000000000000000000011000000 /
b00000000000000000000000011000000 2
b00000000000000000000000011000000 A
1D
b00000000000000000000000011000000 S
b00000000000000000000000011000000 V
b00000000000000000000000011000000 Y
b00000000000000000000000011000000 h
1k
#294000000
0D
0k
#296000000
b00000000000000000000000011000100 ,
b00000000000000000000000011000100 /
b00000000000000000000000011000100 2
b00000000000000000000000011000100 A
1D
b00000000000000000000000011000100 S
b00000000000000000000000011000100 V
b00000000000000000000000011000100 Y
b00000000000000000000000011000100 h
1k
#298000000
0D
0k
#300000000
b00000000000000000000000011001000 ,
b00000000000000000000000011001000 /
b00000000000000000000000011001000 2
b00000000000000000000000011001000 A
1D
b00000000000000000000000011001000 S
b00000000000000000000000011001000 V
b00000000000000000000000011001000 Y
b00000000000000000000000011001000 h
1k
#302000000
0D
0k
#304000000
b00000000000000000000000011001100 ,
b00000000000000000000000011001100 /
b00000000000000000000000011001100 2
b00000000000000000000000011001100 A
1D
b00000000000000000000000011001100 S
b00000000000000000000000011001100 V
b00000000000000000000000011001100 Y
b00000000000000000000000011001100 h
1k
#306000000
0D
0k
#308000000
b00000000000000000000000011010000 ,
b00000000000000000000000011010000 /
b00000000000000000000000011010000 2
b00000000000000000000000011010000 A
1D
b00000000000000000000000011010000 S
b00000000000000000000000011010000 V
b00000000000000000000000011010000 Y
b00000000000000000000000011010000 h
1k
#310000000
0D
0k
#312000000
b00000000000000000000000011010100 ,
b00000000000000000000000011010100 /
b00000000000000000000000011010100 2
b00000000000000000000000011010100 A
1D
b00000000000000000000000011010100 S
b00000000000000000000000011010100 V
b00000000000000000000000011010100 Y
b00000000000000000000000011010100 h
1k
#314000000
0D
0k
#316000000
b00000000000000000000000011011000 ,
b00000000000000000000000011011000 /
b00000000000000000000000011011000 2
b00000000000000000000000011011000 A
1D
b00000000000000000000000011011000 S
b00000000000000000000000011011000 V
b00000000000000000000000011011000 Y
b00000000000000000000000011011000 h
1k
#318000000
0D
0k
#320000000
b00000000000000000000000011011100 ,
b00000000000000000000000011011100 /
b00000000000000000000000011011100 2
b00000000000000000000000011011100 A
1D
b00000000000000000000000011011100 S
b00000000000000000000000011011100 V
b00000000000000000000000011011100 Y
b00000000000000000000000011011100 h
1k
#322000000
0D
0k
#324000000
b00000000000000000000000011100000 ,
b00000000000000000000000011100000 /
b00000000000000000000000011100000 2
b00000000000000000000000011100000 A
1D
b00000000000000000000000011100000 S
b00000000000000000000000011100000 V
b00000000000000000000000011100000 Y
b00000000000000000000000011100000 h
1k
#326000000
0D
0k
#328000000
b00000000000000000000000011100100 ,
b00000000000000000000000011100100 /
b00000000000000000000000011100100 2
b00000000000000000000000011100100 A
1D
b00000000000000000000000011100100 S
b00000000000000000000000011100100 V
b00000000000000000000000011100100 Y
b00000000000000000000000011100100 h
1k
#330000000
0D
0k
#332000000
b00000000000000000000000011101000 ,
b00000000000000000000000011101000 /
b00000000000000000000000011101000 2
b00000000000000000000000011101000 A
1D
b00000000000000000000000011101000 S
b00000000000000000000000011101000 V
b00000000000000000000000011101000 Y
b00000000000000000000000011101000 h
1k
#334000000
0D
0k
#336000000
b00000000000000000000000011101100 ,
b00000000000000000000000011101100 /
b00000000000000000000000011101100 2
b00000000000000000000000011101100 A
1D
b00000000000000000000000011101100 S
b00000000000000000000000011101100 V
b00000000000000000000000011101100 Y
b00000000000000000000000011101100 h
1k
#338000000
0D
0k
#340000000
b00000000000000000000000011110000 ,
b00000000000000000000000011110000 /
b00000000000000000000000011110000 2
b00000000000000000000000011110000 A
1D
b00000000000000000000000011110000 S
b00000000000000000000000011110000 V
b00000000000000000000000011110000 Y
b00000000000000000000000011110000 h
1k
#342000000
0D
0k
#344000000
b00000000000000000000000011110100 ,
b00000000000000000000000011110100 /
b00000000000000000000000011110100 2
b00000000000000000000000011110100 A
1D
b00000000000000000000000011110100 S
b00000000000000000000000011110100 V
b00000000000000000000000011110100 Y
b00000000000000000000000011110100 h
1k
#346000000
0D
0k
#348000000
b00000000000000000000000011111000 ,
b00000000000000000000000011111000 /
b00000000000000000000000011111000 2
b00000000000000000000000011111000 A
1D
b00000000000000000000000011111000 S
b00000000000000000000000011111000 V
b00000000000000000000000011111000 Y
b00000000000000000000000011111000 h
1k
#350000000
0D
0k
#352000000
b00000000000000000000000011111100 ,
b00000000000000000000000011111100 /
b00000000000000000000000011111100 2
b00000000000000000000000011111100 A
1D
b00000000000000000000000011111100 S
b00000000000000000000000011111100 V
b00000000000000000000000011111100 Y
b00000000000000000000000011111100 h
1k
#354000000
0D
0k
#356000000
b00000000000000000000000100000000 ,
b00000000000000000000000100000000 /
b00000000000000000000000100000000 2
b00000000000000000000000100000000 A
1D
b00000000000000000000000100000000 S
b00000000000000000000000100000000 V
b00000000000000000000000100000000 Y
b00000000000000000000000100000000 h
1k
#358000000
0D
0k
#360000000
b00000000000000000000000100000100 ,
b00000000000000000000000100000100 /
b00000000000000000000000100000100 2
b00000000000000000000000100000100 A
1D
b00000000000000000000000100000100 S
b00000000000000000000000100000100 V
b00000000000000000000000100000100 Y
b00000000000000000000000100000100 h
1k
#362000000
0D
0k
#364000000
b00000000000000000000000100001000 ,
b00000000000000000000000100001000 /
b00000000000000000000000100001000 2
b00000000000000000000000100001000 A
1D
b00000000000000000000000100001000 S
b00000000000000000000000100001000 V
b00000000000000000000000100001000 Y
b00000000000000000000000100001000 h
1k
#366000000
0D
0k
#368000000
b00000000000000000000000100001100 ,
b00000000000000000000000100001100 /
b00000000000000000000000100001100 2
b00000000000000000000000100001100 A
1D
b00000000000000000000000100001100 S
b00000000000000000000000100001100 V
b00000000000000000000000100001100 Y
b00000000000000000000000100001100 h
1k
#370000000
0D
0k
#372000000
b00000000000000000000000100010000 ,
b00000000000000000000000100010000 /
b00000000000000000000000100010000 2
b00000000000000000000000100010000 A
1D
b00000000000000000000000100010000 S
b00000000000000000000000100010000 V
b00000000000000000000000100010000 Y
b00000000000000000000000100010000 h
1k
#374000000
0D
0k
#376000000
b00000000000000000000000100010100 ,
b00000000000000000000000100010100 /
b00000000000000000000000100010100 2
b00000000000000000000000100010100 A
1D
b00000000000000000000000100010100 S
b00000000000000000000000100010100 V
b00000000000000000000000100010100 Y
b00000000000000000000000100010100 h
1k
#378000000
0D
0k
#380000000
b00000000000000000000000100011000 ,
b00000000000000000000000100011000 /
b00000000000000000000000100011000 2
b00000000000000000000000100011000 A
1D
b00000000000000000000000100011000 S
b00000000000000000000000100011000 V
b00000000000000000000000100011000 Y
b00000000000000000000000100011000 h
1k
#382000000
0D
0k
#384000000
b00000000000000000000000100011100 ,
b00000000000000000000000100011100 /
b00000000000000000000000100011100 2
b00000000000000000000000100011100 A
1D
b00000000000000000000000100011100 S
b00000000000000000000000100011100 V
b00000000000000000000000100011100 Y
b00000000000000000000000100011100 h
1k
#386000000
0D
0k
#388000000
b00000000000000000000000100100000 ,
b00000000000000000000000100100000 /
b00000000000000000000000100100000 2
b00000000000000000000000100100000 A
1D
b00000000000000000000000100100000 S
b00000000000000000000000100100000 V
b00000000000000000000000100100000 Y
b00000000000000000000000100100000 h
1k
#390000000
0D
0k
#392000000
b00000000000000000000000100100100 ,
b00000000000000000000000100100100 /
b00000000000000000000000100100100 2
b00000000000000000000000100100100 A
1D
b00000000000000000000000100100100 S
b00000000000000000000000100100100 V
b00000000000000000000000100100100 Y
b00000000000000000000000100100100 h
1k
#394000000
0D
0k
#396000000
b00000000000000000000000100101000 ,
b00000000000000000000000100101000 /
b00000000000000000000000100101000 2
b00000000000000000000000100101000 A
1D
b00000000000000000000000100101000 S
b00000000000000000000000100101000 V
b00000000000000000000000100101000 Y
b00000000000000000000000100101000 h
1k
#398000000
0D
0k
#400000000
b00000000000000000000000100101100 ,
b00000000000000000000000100101100 /
b00000000000000000000000100101100 2
b00000000000000000000000100101100 A
1D
b00000000000000000000000100101100 S
b00000000000000000000000100101100 V
b00000000000000000000000100101100 Y
b00000000000000000000000100101100 h
1k
#402000000
0D
0k
#404000000
b00000000000000000000000100110000 ,
b00000000000000000000000100110000 /
b00000000000000000000000100110000 2
b00000000000000000000000100110000 A
1D
b00000000000000000000000100110000 S
b00000000000000000000000100110000 V
b00000000000000000000000100110000 Y
b00000000000000000000000100110000 h
1k
#406000000
0D
0k
#408000000
b00000000000000000000000100110100 ,
b00000000000000000000000100110100 /
b00000000000000000000000100110100 2
b00000000000000000000000100110100 A
1D
b00000000000000000000000100110100 S
b00000000000000000000000100110100 V
b00000000000000000000000100110100 Y
b00000000000000000000000100110100 h
1k
#410000000
0D
0k
#412000000
b00000000000000000000000100111000 ,
b00000000000000000000000100111000 /
b00000000000000000000000100111000 2
b00000000000000000000000100111000 A
1D
b00000000000000000000000100111000 S
b00000000000000000000000100111000 V
b00000000000000000000000100111000 Y
b00000000000000000000000100111000 h
1k
#414000000
0D
0k
#416000000
b00000000000000000000000100111100 ,
b00000000000000000000000100111100 /
b00000000000000000000000100111100 2
b00000000000000000000000100111100 A
1D
b00000000000000000000000100111100 S
b00000000000000000000000100111100 V
b00000000000000000000000100111100 Y
b00000000000000000000000100111100 h
1k
#418000000
0D
0k
#420000000
b00000000000000000000000101000000 ,
b00000000000000000000000101000000 /
b00000000000000000000000101000000 2
b00000000000000000000000101000000 A
1D
b00000000000000000000000101000000 S
b00000000000000000000000101000000 V
b00000000000000000000000101000000 Y
b00000000000000000000000101000000 h
1k
#422000000
0D
0k
#424000000
b00000000000000000000000101000100 ,
b00000000000000000000000101000100 /
b00000000000000000000000101000100 2
b00000000000000000000000101000100 A
1D
b00000000000000000000000101000100 S
b00000000000000000000000101000100 V
b00000000000000000000000101000100 Y
b00000000000000000000000101000100 h
1k
#426000000
0D
0k
#428000000
b00000000000000000000000101001000 ,
b00000000000000000000000101001000 /
b00000000000000000000000101001000 2
b00000000000000000000000101001000 A
1D
b00000000000000000000000101001000 S
b00000000000000000000000101001000 V
b00000000000000000000000101001000 Y
b00000000000000000000000101001000 h
1k
#430000000
0D
0k
