Simulations/testreg.vcd
$date
  Tue Jan 16 20:18:50 2024
$end
$version
  GHDL v0
$end
$timescale
  1 fs
$end
$var reg 1 ! ck $end
$var reg 1 " reset_n $end
$var reg 32 # wdata1[31:0] $end
$var reg 32 $ wdata2[31:0] $end
$var reg 1 % wen1 $end
$var reg 1 & wen2 $end
$var reg 1 ' wcry $end
$var reg 1 ( wzero $end
$var reg 1 ) wneg $end
$var reg 1 * wovr $end
$var reg 1 + cspr_wb $end
$var reg 1 , inval_czn $end
$var reg 1 - inval_ovr $end
$var reg 1 . inc_pc $end
$var reg 1 / inval1 $end
$var reg 1 0 inval2 $end
$var reg 4 1 inval_adr1[3:0] $end
$var reg 4 2 inval_adr2[3:0] $end
$var reg 4 3 wadr1[3:0] $end
$var reg 4 4 wadr2[3:0] $end
$var reg 4 5 radr1[3:0] $end
$var reg 4 6 radr2[3:0] $end
$var reg 4 7 radr3[3:0] $end
$var reg 32 8 reg_rd1[31:0] $end
$var reg 32 9 reg_rd2[31:0] $end
$var reg 32 : reg_rd3[31:0] $end
$var reg 32 ; reg_pc[31:0] $end
$var reg 1 < reg_v1 $end
$var reg 1 = reg_v2 $end
$var reg 1 > reg_v3 $end
$var reg 1 ? reg_cry $end
$var reg 1 @ reg_zero $end
$var reg 1 A reg_neg $end
$var reg 1 B reg_cznv $end
$var reg 1 C reg_ovr $end
$var reg 1 D reg_vv $end
$var reg 1 E reg_pcv $end
$var reg 1 F mem_pop $end
$var reg 1 G vdd $end
$var reg 1 H vss $end
$scope module uut $end
$var reg 32 I wdata1[31:0] $end
$var reg 4 J wadr1[3:0] $end
$var reg 1 K wen1 $end
$var reg 32 L wdata2[31:0] $end
$var reg 4 M wadr2[3:0] $end
$var reg 1 N wen2 $end
$var reg 1 O wcry $end
$var reg 1 P wzero $end
$var reg 1 Q wneg $end
$var reg 1 R wovr $end
$var reg 1 S cspr_wb $end
$var reg 32 T reg_rd1[31:0] $end
$var reg 4 U radr1[3:0] $end
$var reg 1 V reg_v1 $end
$var reg 32 W reg_rd2[31:0] $end
$var reg 4 X radr2[3:0] $end
$var reg 1 Y reg_v2 $end
$var reg 32 Z reg_rd3[31:0] $end
$var reg 4 [ radr3[3:0] $end
$var reg 1 \ reg_v3 $end
$var reg 1 ] reg_cry $end
$var reg 1 ^ reg_zero $end
$var reg 1 _ reg_neg $end
$var reg 1 ` reg_cznv $end
$var reg 1 a reg_ovr $end
$var reg 1 b reg_vv $end
$var reg 4 c inval_adr1[3:0] $end
$var reg 1 d inval1 $end
$var reg 4 e inval_adr2[3:0] $end
$var reg 1 f inval2 $end
$var reg 1 g inval_czn $end
$var reg 1 h inval_ovr $end
$var reg 32 i reg_pc[31:0] $end
$var reg 1 j reg_pcv $end
$var reg 1 k inc_pc $end
$var reg 1 l ck $end
$var reg 1 m reset_n $end
$var reg 1 n vdd $end
$var reg 1 o vss $end
$comment registerfile is not handled $end
$var reg 16 p register_valid[0:15] $end
$var reg 1 q flagc_int $end
$var reg 1 r validflagc_int $end
$var reg 1 s flagz_int $end
$var reg 1 t validflagz_int $end
$var reg 1 u flagn_int $end
$var reg 1 v validflagn_int $end
$var reg 1 w flagv_int $end
$var reg 1 x validflagv_int $end
$upscope $end
$enddefinitions $end
#0
0!
0"
b10000000000000000000000000000000 #
b10000000000000000000000000000001 $
1%
1&
1'
0(
1)
0*
1+
1,
1-
1.
1/
10
b0000 1
b0001 2
b0000 3
b0001 4
b0000 5
b0001 6
b1111 7
bUUUUUUUUUUUUUUUUUUUUUUUUUUUUUUUU 8
bUUUUUUUUUUUUUUUUUUUUUUUUUUUUUUUU 9
bUUUUUUUUUUUUUUUUUUUUUUUUUUUUUUUU :
bUUUUUUUUUUUUUUUUUUUUUUUUUUUUUUUU ;
U<
U=
U>
U?
U@
UA
UB
UC
UD
UE
0F
1G
0H
b10000000000000000000000000000000 I
b0000 J
1K
b10000000000000000000000000000001 L
b0001 M
1N
1O
0P
1Q
0R
1S
bUUUUUUUUUUUUUUUUUUUUUUUUUUUUUUUU T
b0000 U
UV
bUUUUUUUUUUUUUUUUUUUUUUUUUUUUUUUU W
b0001 X
UY
bUUUUUUUUUUUUUUUUUUUUUUUUUUUUUUUU Z
b1111 [
U\
U]
U^
U_
U`
Ua
Ub
b0000 c
1d
b0001 e
1f
1g
1h
bUUUUUUUUUUUUUUUUUUUUUUUUUUUUUUUU i
Uj
1k
0l
0m
1n
0o
b1111111111111111 p
0q
1r
0s
1t
0u
1v
0w
1x
#500000
1!
1l
#1000000
0!
0l
#1500000
1!
1l
#2000000
0!
0l
#2500000
1!
1l
#3000000
0!
0l
#3500000
1!
1l
#4000000
0!
0l
#4500000
1!
1l
#5000000
0!
0l
#5500000
1!
1l
#6000000
0!
0l
#6500000
1!
1l
#7000000
0!
0l
#7500000
1!
1l
#8000000
0!
0l
#8500000
1!
1l
#9000000
0!
0l
#9500000
1!
1l
#10000000
0!
0l
#10500000
1!
1l
#11000000
0!
0l
#11500000
1!
1l
#12000000
0!
0l
#12500000
1!
1l
#13000000
0!
0l
#13500000
1!
1l
#14000000
0!
0l
#14500000
1!
1l
#15000000
0!
1"
0l
1m
#15500000
1!
b00000000000000000000000000000000 8
b00000000000000000000000000000000 9
b00000000000000000000000000000000 :
b00000000000000000000000000000000 ;
1<
1=
1>
0?
0@
0A
1B
0C
1D
1E
b00000000000000000000000000000000 T
1V
b00000000000000000000000000000000 W
1Y
b00000000000000000000000000000000 Z
1\
0]
0^
0_
1`
0a
1b
b00000000000000000000000000000000 i
1j
1l
b0011111111111111 p
1q
1u
#16000000
0!
0l
#16500000
1!
b10000000000000000000000000000000 8
b10000000000000000000000000000001 9
b00000000000000000000000000000100 :
b00000000000000000000000000000100 ;
0<
0=
1?
1A
b10000000000000000000000000000000 T
0V
b10000000000000000000000000000001 W
0Y
b00000000000000000000000000000100 Z
1]
1_
b00000000000000000000000000000100 i
1l
#17000000
0!
0l
#17500000
1!
b00000000000000000000000000001000 :
b00000000000000000000000000001000 ;
b00000000000000000000000000001000 Z
b00000000000000000000000000001000 i
1l
#18000000
0!
0l
#18500000
1!
b00000000000000000000000000001100 :
b00000000000000000000000000001100 ;
b00000000000000000000000000001100 Z
b00000000000000000000000000001100 i
1l
#19000000
0!
0l
#19500000
1!
b00000000000000000000000000010000 :
b00000000000000000000000000010000 ;
b00000000000000000000000000010000 Z
b00000000000000000000000000010000 i
1l
#20000000
0!
0l
#20500000
1!
b00000000000000000000000000010100 :
b00000000000000000000000000010100 ;
b00000000000000000000000000010100 Z
b00000000000000000000000000010100 i
1l
#21000000
0!
0l
#21500000
1!
b00000000000000000000000000011000 :
b00000000000000000000000000011000 ;
b00000000000000000000000000011000 Z
b00000000000000000000000000011000 i
1l
#22000000
0!
0l
#22500000
1!
b00000000000000000000000000011100 :
b00000000000000000000000000011100 ;
b00000000000000000000000000011100 Z
b00000000000000000000000000011100 i
1l
#23000000
0!
0l
#23500000
1!
b00000000000000000000000000100000 :
b00000000000000000000000000100000 ;
b00000000000000000000000000100000 Z
b00000000000000000000000000100000 i
1l
#24000000
0!
0l
#24500000
1!
b00000000000000000000000000100100 :
b00000000000000000000000000100100 ;
b00000000000000000000000000100100 Z
b00000000000000000000000000100100 i
1l
#25000000
0!
0l
#25500000
1!
b00000000000000000000000000101000 :
b00000000000000000000000000101000 ;
b00000000000000000000000000101000 Z
b00000000000000000000000000101000 i
1l
#26000000
0!
0l
#26500000
1!
b00000000000000000000000000101100 :
b00000000000000000000000000101100 ;
b00000000000000000000000000101100 Z
b00000000000000000000000000101100 i
1l
#27000000
0!
0l
#27500000
1!
b00000000000000000000000000110000 :
b00000000000000000000000000110000 ;
b00000000000000000000000000110000 Z
b00000000000000000000000000110000 i
1l
#28000000
0!
0l
#28500000
1!
b00000000000000000000000000110100 :
b00000000000000000000000000110100 ;
b00000000000000000000000000110100 Z
b00000000000000000000000000110100 i
1l
#29000000
0!
0l
#29500000
1!
b00000000000000000000000000111000 :
b00000000000000000000000000111000 ;
b00000000000000000000000000111000 Z
b00000000000000000000000000111000 i
1l
#30000000
0!
0l
#30500000
1!
b00000000000000000000000000111100 :
b00000000000000000000000000111100 ;
b00000000000000000000000000111100 Z
b00000000000000000000000000111100 i
1l
#31000000
0!
0l
#31500000
1!
b00000000000000000000000001000000 :
b00000000000000000000000001000000 ;
b00000000000000000000000001000000 Z
b00000000000000000000000001000000 i
1l
#32000000
0!
0l
#32500000
1!
b00000000000000000000000001000100 :
b00000000000000000000000001000100 ;
b00000000000000000000000001000100 Z
b00000000000000000000000001000100 i
1l
#33000000
0!
0l
#33500000
1!
b00000000000000000000000001001000 :
b00000000000000000000000001001000 ;
b00000000000000000000000001001000 Z
b00000000000000000000000001001000 i
1l
#34000000
0!
0l
#34500000
1!
b00000000000000000000000001001100 :
b00000000000000000000000001001100 ;
b00000000000000000000000001001100 Z
b00000000000000000000000001001100 i
1l
#35000000
0!
0l
#35500000
1!
b00000000000000000000000001010000 :
b00000000000000000000000001010000 ;
b00000000000000000000000001010000 Z
b00000000000000000000000001010000 i
1l
#36000000
0!
0l
#36500000
1!
b00000000000000000000000001010100 :
b00000000000000000000000001010100 ;
b00000000000000000000000001010100 Z
b00000000000000000000000001010100 i
1l
#37000000
0!
0l
#37500000
1!
b00000000000000000000000001011000 :
b00000000000000000000000001011000 ;
b00000000000000000000000001011000 Z
b00000000000000000000000001011000 i
1l
#38000000
0!
0l
#38500000
1!
b00000000000000000000000001011100 :
b00000000000000000000000001011100 ;
b00000000000000000000000001011100 Z
b00000000000000000000000001011100 i
1l
#39000000
0!
0l
#39500000
1!
b00000000000000000000000001100000 :
b00000000000000000000000001100000 ;
b00000000000000000000000001100000 Z
b00000000000000000000000001100000 i
1l
#40000000
0!
0l
#40500000
1!
b00000000000000000000000001100100 :
b00000000000000000000000001100100 ;
b00000000000000000000000001100100 Z
b00000000000000000000000001100100 i
1l
#41000000
0!
0l
#41500000
1!
b00000000000000000000000001101000 :
b00000000000000000000000001101000 ;
b00000000000000000000000001101000 Z
b00000000000000000000000001101000 i
1l
#42000000
0!
0l
#42500000
1!
b00000000000000000000000001101100 :
b00000000000000000000000001101100 ;
b00000000000000000000000001101100 Z
b00000000000000000000000001101100 i
1l
#43000000
0!
0l
#43500000
1!
b00000000000000000000000001110000 :
b00000000000000000000000001110000 ;
b00000000000000000000000001110000 Z
b00000000000000000000000001110000 i
1l
#44000000
0!
0l
#44500000
1!
b00000000000000000000000001110100 :
b00000000000000000000000001110100 ;
b00000000000000000000000001110100 Z
b00000000000000000000000001110100 i
1l
#45000000
0!
0l
#45500000
1!
b00000000000000000000000001111000 :
b00000000000000000000000001111000 ;
b00000000000000000000000001111000 Z
b00000000000000000000000001111000 i
1l
#46000000
0!
0l
#46500000
1!
b00000000000000000000000001111100 :
b00000000000000000000000001111100 ;
b00000000000000000000000001111100 Z
b00000000000000000000000001111100 i
1l
#47000000
0!
0l
#47500000
1!
b00000000000000000000000010000000 :
b00000000000000000000000010000000 ;
b00000000000000000000000010000000 Z
b00000000000000000000000010000000 i
1l
#48000000
0!
0l
#48500000
1!
b00000000000000000000000010000100 :
b00000000000000000000000010000100 ;
b00000000000000000000000010000100 Z
b00000000000000000000000010000100 i
1l
#49000000
0!
0l
#49500000
1!
b00000000000000000000000010001000 :
b00000000000000000000000010001000 ;
b00000000000000000000000010001000 Z
b00000000000000000000000010001000 i
1l
#50000000
0!
0l
#50500000
1!
b00000000000000000000000010001100 :
b00000000000000000000000010001100 ;
b00000000000000000000000010001100 Z
b00000000000000000000000010001100 i
1l
#51000000
0!
0l
#51500000
1!
b00000000000000000000000010010000 :
b00000000000000000000000010010000 ;
b00000000000000000000000010010000 Z
b00000000000000000000000010010000 i
1l
#52000000
0!
0l
#52500000
1!
b00000000000000000000000010010100 :
b00000000000000000000000010010100 ;
b00000000000000000000000010010100 Z
b00000000000000000000000010010100 i
1l
#53000000
0!
0l
#53500000
1!
b00000000000000000000000010011000 :
b00000000000000000000000010011000 ;
b00000000000000000000000010011000 Z
b00000000000000000000000010011000 i
1l
#54000000
0!
0l
#54500000
1!
b00000000000000000000000010011100 :
b00000000000000000000000010011100 ;
b00000000000000000000000010011100 Z
b00000000000000000000000010011100 i
1l
#55000000
0!
0l
#55500000
1!
b00000000000000000000000010100000 :
b00000000000000000000000010100000 ;
b00000000000000000000000010100000 Z
b00000000000000000000000010100000 i
1l
#56000000
0!
0l
#56500000
1!
b00000000000000000000000010100100 :
b00000000000000000000000010100100 ;
b00000000000000000000000010100100 Z
b00000000000000000000000010100100 i
1l
#57000000
0!
0l
#57500000
1!
b00000000000000000000000010101000 :
b00000000000000000000000010101000 ;
b00000000000000000000000010101000 Z
b00000000000000000000000010101000 i
1l
#58000000
0!
0l
#58500000
1!
b00000000000000000000000010101100 :
b00000000000000000000000010101100 ;
b00000000000000000000000010101100 Z
b00000000000000000000000010101100 i
1l
#59000000
0!
0l
#59500000
1!
b00000000000000000000000010110000 :
b00000000000000000000000010110000 ;
b00000000000000000000000010110000 Z
b00000000000000000000000010110000 i
1l
#60000000
0!
0l
#60500000
1!
b00000000000000000000000010110100 :
b00000000000000000000000010110100 ;
b00000000000000000000000010110100 Z
b00000000000000000000000010110100 i
1l
#61000000
0!
0l
#61500000
1!
b00000000000000000000000010111000 :
b00000000000000000000000010111000 ;
b00000000000000000000000010111000 Z
b00000000000000000000000010111000 i
1l
#62000000
0!
0l
#62500000
1!
b00000000000000000000000010111100 :
b00000000000000000000000010111100 ;
b00000000000000000000000010111100 Z
b00000000000000000000000010111100 i
1l
#63000000
0!
0l
#63500000
1!
b00000000000000000000000011000000 :
b00000000000000000000000011000000 ;
b00000000000000000000000011000000 Z
b00000000000000000000000011000000 i
1l
#64000000
0!
0l
#64500000
1!
b00000000000000000000000011000100 :
b00000000000000000000000011000100 ;
b00000000000000000000000011000100 Z
b00000000000000000000000011000100 i
1l
#65000000
0!
0l
#65500000
1!
b00000000000000000000000011001000 :
b00000000000000000000000011001000 ;
b00000000000000000000000011001000 Z
b00000000000000000000000011001000 i
1l
#66000000
0!
0l
#66500000
1!
b00000000000000000000000011001100 :
b00000000000000000000000011001100 ;
b00000000000000000000000011001100 Z
b00000000000000000000000011001100 i
1l
#67000000
0!
0l
#67500000
1!
b00000000000000000000000011010000 :
b00000000000000000000000011010000 ;
b00000000000000000000000011010000 Z
b00000000000000000000000011010000 i
1l
#68000000
0!
0l
#68500000
1!
b00000000000000000000000011010100 :
b00000000000000000000000011010100 ;
b00000000000000000000000011010100 Z
b00000000000000000000000011010100 i
1l
#69000000
0!
0l
#69500000
1!
b00000000000000000000000011011000 :
b00000000000000000000000011011000 ;
b00000000000000000000000011011000 Z
b00000000000000000000000011011000 i
1l
#70000000
0!
0l
#70500000
1!
b00000000000000000000000011011100 :
b00000000000000000000000011011100 ;
b00000000000000000000000011011100 Z
b00000000000000000000000011011100 i
1l
#71000000
0!
0l
#71500000
1!
b00000000000000000000000011100000 :
b00000000000000000000000011100000 ;
b00000000000000000000000011100000 Z
b00000000000000000000000011100000 i
1l
#72000000
0!
0l
#72500000
1!
b00000000000000000000000011100100 :
b00000000000000000000000011100100 ;
b00000000000000000000000011100100 Z
b00000000000000000000000011100100 i
1l
#73000000
0!
0l
#73500000
1!
b00000000000000000000000011101000 :
b00000000000000000000000011101000 ;
b00000000000000000000000011101000 Z
b00000000000000000000000011101000 i
1l
#74000000
0!
0l
#74500000
1!
b00000000000000000000000011101100 :
b00000000000000000000000011101100 ;
b00000000000000000000000011101100 Z
b00000000000000000000000011101100 i
1l
#75000000
0!
0l
#75500000
1!
b00000000000000000000000011110000 :
b00000000000000000000000011110000 ;
b00000000000000000000000011110000 Z
b00000000000000000000000011110000 i
1l
#76000000
0!
0l
#76500000
1!
b00000000000000000000000011110100 :
b00000000000000000000000011110100 ;
b00000000000000000000000011110100 Z
b00000000000000000000000011110100 i
1l
#77000000
0!
0l
#77500000
1!
b00000000000000000000000011111000 :
b00000000000000000000000011111000 ;
b00000000000000000000000011111000 Z
b00000000000000000000000011111000 i
1l
#78000000
0!
0l
#78500000
1!
b00000000000000000000000011111100 :
b00000000000000000000000011111100 ;
b00000000000000000000000011111100 Z
b00000000000000000000000011111100 i
1l
#79000000
0!
0l
#79500000
1!
b00000000000000000000000100000000 :
b00000000000000000000000100000000 ;
b00000000000000000000000100000000 Z
b00000000000000000000000100000000 i
1l
#80000000
0!
0l
#80500000
1!
b00000000000000000000000100000100 :
b00000000000000000000000100000100 ;
b00000000000000000000000100000100 Z
b00000000000000000000000100000100 i
1l
#81000000
0!
0l
#81500000
1!
b00000000000000000000000100001000 :
b00000000000000000000000100001000 ;
b00000000000000000000000100001000 Z
b00000000000000000000000100001000 i
1l
#82000000
0!
0l
#82500000
1!
b00000000000000000000000100001100 :
b00000000000000000000000100001100 ;
b00000000000000000000000100001100 Z
b00000000000000000000000100001100 i
1l
#83000000
0!
0l
#83500000
1!
b00000000000000000000000100010000 :
b00000000000000000000000100010000 ;
b00000000000000000000000100010000 Z
b00000000000000000000000100010000 i
1l
#84000000
0!
0l
#84500000
1!
b00000000000000000000000100010100 :
b00000000000000000000000100010100 ;
b00000000000000000000000100010100 Z
b00000000000000000000000100010100 i
1l
#85000000
0!
0l
#85500000
1!
b00000000000000000000000100011000 :
b00000000000000000000000100011000 ;
b00000000000000000000000100011000 Z
b00000000000000000000000100011000 i
1l
#86000000
0!
0l
#86500000
1!
b00000000000000000000000100011100 :
b00000000000000000000000100011100 ;
b00000000000000000000000100011100 Z
b00000000000000000000000100011100 i
1l
#87000000
0!
0l
#87500000
1!
b00000000000000000000000100100000 :
b00000000000000000000000100100000 ;
b00000000000000000000000100100000 Z
b00000000000000000000000100100000 i
1l
#88000000
0!
0l
#88500000
1!
b00000000000000000000000100100100 :
b00000000000000000000000100100100 ;
b00000000000000000000000100100100 Z
b00000000000000000000000100100100 i
1l
#89000000
0!
0l
#89500000
1!
b00000000000000000000000100101000 :
b00000000000000000000000100101000 ;
b00000000000000000000000100101000 Z
b00000000000000000000000100101000 i
1l
#90000000
0!
0l
#90500000
1!
b00000000000000000000000100101100 :
b00000000000000000000000100101100 ;
b00000000000000000000000100101100 Z
b00000000000000000000000100101100 i
1l
#91000000
0!
0l
#91500000
1!
b00000000000000000000000100110000 :
b00000000000000000000000100110000 ;
b00000000000000000000000100110000 Z
b00000000000000000000000100110000 i
1l
#92000000
0!
0l
#92500000
1!
b00000000000000000000000100110100 :
b00000000000000000000000100110100 ;
b00000000000000000000000100110100 Z
b00000000000000000000000100110100 i
1l
#93000000
0!
0l
#93500000
1!
b00000000000000000000000100111000 :
b00000000000000000000000100111000 ;
b00000000000000000000000100111000 Z
b00000000000000000000000100111000 i
1l
#94000000
0!
0l
#94500000
1!
b00000000000000000000000100111100 :
b00000000000000000000000100111100 ;
b00000000000000000000000100111100 Z
b00000000000000000000000100111100 i
1l
#95000000
0!
0l
#95500000
1!
b00000000000000000000000101000000 :
b00000000000000000000000101000000 ;
b00000000000000000000000101000000 Z
b00000000000000000000000101000000 i
1l
#96000000
0!
0l
#96500000
1!
b00000000000000000000000101000100 :
b00000000000000000000000101000100 ;
b00000000000000000000000101000100 Z
b00000000000000000000000101000100 i
1l
#97000000
0!
0l
#97500000
1!
b00000000000000000000000101001000 :
b00000000000000000000000101001000 ;
b00000000000000000000000101001000 Z
b00000000000000000000000101001000 i
1l
#98000000
0!
0l
#98500000
1!
b00000000000000000000000101001100 :
b00000000000000000000000101001100 ;
b00000000000000000000000101001100 Z
b00000000000000000000000101001100 i
1l
#99000000
0!
0l
#99500000
1!
b00000000000000000000000101010000 :
b00000000000000000000000101010000 ;
b00000000000000000000000101010000 Z
b00000000000000000000000101010000 i
1l
#100000000
0!
0l
#100500000
1!
b00000000000000000000000101010100 :
b00000000000000000000000101010100 ;
b00000000000000000000000101010100 Z
b00000000000000000000000101010100 i
1l
#101000000
0!
0l
#101500000
1!
b00000000000000000000000101011000 :
b00000000000000000000000101011000 ;
b00000000000000000000000101011000 Z
b00000000000000000000000101011000 i
1l
#102000000
0!
0l
#102500000
1!
b00000000000000000000000101011100 :
b00000000000000000000000101011100 ;
b00000000000000000000000101011100 Z
b00000000000000000000000101011100 i
1l
#103000000
0!
0l
#103500000
1!
b00000000000000000000000101100000 :
b00000000000000000000000101100000 ;
b00000000000000000000000101100000 Z
b00000000000000000000000101100000 i
1l
#104000000
0!
0l
#104500000
1!
b00000000000000000000000101100100 :
b00000000000000000000000101100100 ;
b00000000000000000000000101100100 Z
b00000000000000000000000101100100 i
1l
#105000000
0!
0l
#105500000
1!
b00000000000000000000000101101000 :
b00000000000000000000000101101000 ;
b00000000000000000000000101101000 Z
b00000000000000000000000101101000 i
1l
#106000000
0!
0l
#106500000
1!
b00000000000000000000000101101100 :
b00000000000000000000000101101100 ;
b00000000000000000000000101101100 Z
b00000000000000000000000101101100 i
1l
#107000000
0!
0l
#107500000
1!
b00000000000000000000000101110000 :
b00000000000000000000000101110000 ;
b00000000000000000000000101110000 Z
b00000000000000000000000101110000 i
1l
#108000000
0!
0l
#108500000
1!
b00000000000000000000000101110100 :
b00000000000000000000000101110100 ;
b00000000000000000000000101110100 Z
b00000000000000000000000101110100 i
1l
#109000000
0!
0l
#109500000
1!
b00000000000000000000000101111000 :
b00000000000000000000000101111000 ;
b00000000000000000000000101111000 Z
b00000000000000000000000101111000 i
1l
#110000000
0!
0l
#110500000
1!
b00000000000000000000000101111100 :
b00000000000000000000000101111100 ;
b00000000000000000000000101111100 Z
b00000000000000000000000101111100 i
1l
#111000000
0!
0l
#111500000
1!
b00000000000000000000000110000000 :
b00000000000000000000000110000000 ;
b00000000000000000000000110000000 Z
b00000000000000000000000110000000 i
1l
#112000000
0!
0l
#112500000
1!
b00000000000000000000000110000100 :
b00000000000000000000000110000100 ;
b00000000000000000000000110000100 Z
b00000000000000000000000110000100 i
1l
#113000000
0!
0l
#113500000
1!
b00000000000000000000000110001000 :
b00000000000000000000000110001000 ;
b00000000000000000000000110001000 Z
b00000000000000000000000110001000 i
1l
#114000000
0!
0l
#114500000
1!
b00000000000000000000000110001100 :
b00000000000000000000000110001100 ;
b00000000000000000000000110001100 Z
b00000000000000000000000110001100 i
1l
#115000000
0!
0l
#115500000
1!
b00000000000000000000000110010000 :
b00000000000000000000000110010000 ;
b00000000000000000000000110010000 Z
b00000000000000000000000110010000 i
1l
#116000000
0!
0l
#116500000
1!
b00000000000000000000000110010100 :
b00000000000000000000000110010100 ;
b00000000000000000000000110010100 Z
b00000000000000000000000110010100 i
1l
#117000000
0!
0l
#117500000
1!
b00000000000000000000000110011000 :
b00000000000000000000000110011000 ;
b00000000000000000000000110011000 Z
b00000000000000000000000110011000 i
1l
#118000000
0!
0l
#118500000
1!
b00000000000000000000000110011100 :
b00000000000000000000000110011100 ;
b00000000000000000000000110011100 Z
b00000000000000000000000110011100 i
1l
#119000000
0!
0l
#119500000
1!
b00000000000000000000000110100000 :
b00000000000000000000000110100000 ;
b00000000000000000000000110100000 Z
b00000000000000000000000110100000 i
1l
#120000000
0!
0l
#120500000
1!
b00000000000000000000000110100100 :
b00000000000000000000000110100100 ;
b00000000000000000000000110100100 Z
b00000000000000000000000110100100 i
1l
#121000000
0!
0l
#121500000
1!
b00000000000000000000000110101000 :
b00000000000000000000000110101000 ;
b00000000000000000000000110101000 Z
b00000000000000000000000110101000 i
1l
#122000000
0!
0l
#122500000
1!
b00000000000000000000000110101100 :
b00000000000000000000000110101100 ;
b00000000000000000000000110101100 Z
b00000000000000000000000110101100 i
1l
#123000000
0!
0l
#123500000
1!
b00000000000000000000000110110000 :
b00000000000000000000000110110000 ;
b00000000000000000000000110110000 Z
b00000000000000000000000110110000 i
1l
#124000000
0!
0l
#124500000
1!
b00000000000000000000000110110100 :
b00000000000000000000000110110100 ;
b00000000000000000000000110110100 Z
b00000000000000000000000110110100 i
1l
#125000000
0!
0l
#125500000
1!
b00000000000000000000000110111000 :
b00000000000000000000000110111000 ;
b00000000000000000000000110111000 Z
b00000000000000000000000110111000 i
1l
#126000000
0!
0l
#126500000
1!
b00000000000000000000000110111100 :
b00000000000000000000000110111100 ;
b00000000000000000000000110111100 Z
b00000000000000000000000110111100 i
1l
#127000000
0!
0l
#127500000
1!
b00000000000000000000000111000000 :
b00000000000000000000000111000000 ;
b00000000000000000000000111000000 Z
b00000000000000000000000111000000 i
1l
#128000000
0!
0l
#128500000
1!
b00000000000000000000000111000100 :
b00000000000000000000000111000100 ;
b00000000000000000000000111000100 Z
b00000000000000000000000111000100 i
1l
#129000000
0!
0l
#129500000
1!
b00000000000000000000000111001000 :
b00000000000000000000000111001000 ;
b00000000000000000000000111001000 Z
b00000000000000000000000111001000 i
1l
#130000000
0!
0l
#130500000
1!
b00000000000000000000000111001100 :
b00000000000000000000000111001100 ;
b00000000000000000000000111001100 Z
b00000000000000000000000111001100 i
1l
#131000000
0!
0l
#131500000
1!
b00000000000000000000000111010000 :
b00000000000000000000000111010000 ;
b00000000000000000000000111010000 Z
b00000000000000000000000111010000 i
1l
#132000000
0!
0l
#132500000
1!
b00000000000000000000000111010100 :
b00000000000000000000000111010100 ;
b00000000000000000000000111010100 Z
b00000000000000000000000111010100 i
1l
#133000000
0!
0l
#133500000
1!
b00000000000000000000000111011000 :
b00000000000000000000000111011000 ;
b00000000000000000000000111011000 Z
b00000000000000000000000111011000 i
1l
#134000000
0!
0l
#134500000
1!
b00000000000000000000000111011100 :
b00000000000000000000000111011100 ;
b00000000000000000000000111011100 Z
b00000000000000000000000111011100 i
1l
#135000000
0!
0l
#135500000
1!
b00000000000000000000000111100000 :
b00000000000000000000000111100000 ;
b00000000000000000000000111100000 Z
b00000000000000000000000111100000 i
1l
#136000000
0!
0l
#136500000
1!
b00000000000000000000000111100100 :
b00000000000000000000000111100100 ;
b00000000000000000000000111100100 Z
b00000000000000000000000111100100 i
1l
#137000000
0!
0l
#137500000
1!
b00000000000000000000000111101000 :
b00000000000000000000000111101000 ;
b00000000000000000000000111101000 Z
b00000000000000000000000111101000 i
1l
#138000000
0!
0l
#138500000
1!
b00000000000000000000000111101100 :
b00000000000000000000000111101100 ;
b00000000000000000000000111101100 Z
b00000000000000000000000111101100 i
1l
#139000000
0!
0l
#139500000
1!
b00000000000000000000000111110000 :
b00000000000000000000000111110000 ;
b00000000000000000000000111110000 Z
b00000000000000000000000111110000 i
1l
#140000000
0!
0l
#140500000
1!
b00000000000000000000000111110100 :
b00000000000000000000000111110100 ;
b00000000000000000000000111110100 Z
b00000000000000000000000111110100 i
1l
#141000000
0!
0l
#141500000
1!
b00000000000000000000000111111000 :
b00000000000000000000000111111000 ;
b00000000000000000000000111111000 Z
b00000000000000000000000111111000 i
1l
#142000000
0!
0l
#142500000
1!
b00000000000000000000000111111100 :
b00000000000000000000000111111100 ;
b00000000000000000000000111111100 Z
b00000000000000000000000111111100 i
1l
#143000000
0!
0l
#143500000
1!
b00000000000000000000001000000000 :
b00000000000000000000001000000000 ;
b00000000000000000000001000000000 Z
b00000000000000000000001000000000 i
1l
#144000000
0!
0l
#144500000
1!
b00000000000000000000001000000100 :
b00000000000000000000001000000100 ;
b00000000000000000000001000000100 Z
b00000000000000000000001000000100 i
1l
#145000000
0!
0l
#145500000
1!
b00000000000000000000001000001000 :
b00000000000000000000001000001000 ;
b00000000000000000000001000001000 Z
b00000000000000000000001000001000 i
1l
#146000000
0!
0l
#146500000
1!
b00000000000000000000001000001100 :
b00000000000000000000001000001100 ;
b00000000000000000000001000001100 Z
b00000000000000000000001000001100 i
1l
#147000000
0!
0l
#147500000
1!
b00000000000000000000001000010000 :
b00000000000000000000001000010000 ;
b00000000000000000000001000010000 Z
b00000000000000000000001000010000 i
1l
#148000000
0!
0l
#148500000
1!
b00000000000000000000001000010100 :
b00000000000000000000001000010100 ;
b00000000000000000000001000010100 Z
b00000000000000000000001000010100 i
1l
#149000000
0!
0l
#149500000
1!
b00000000000000000000001000011000 :
b00000000000000000000001000011000 ;
b00000000000000000000001000011000 Z
b00000000000000000000001000011000 i
1l
