Simulations/testAlu.vcd
$date
  Sat Jan 13 00:30:05 2024
$end
$version
  GHDL v0
$end
$timescale
  1 fs
$end
$var reg 32 ! sig_op1[31:0] $end
$var reg 32 " sig_op2[31:0] $end
$var reg 1 # sig_cin $end
$var reg 2 $ sig_cmd[1:0] $end
$var reg 32 % res_out[31:0] $end
$var reg 1 & sig_cout $end
$var reg 1 ' sig_z $end
$var reg 1 ( sig_n $end
$var reg 1 ) sig_v $end
$var reg 1 * sig_vdd $end
$var reg 1 + sig_vss $end
$scope module alu_inst $end
$var reg 32 , op1[31:0] $end
$var reg 32 - op2[31:0] $end
$var reg 1 . cin $end
$var reg 2 / cmd[1:0] $end
$var reg 32 0 res[31:0] $end
$var reg 1 1 cout $end
$var reg 1 2 z $end
$var reg 1 3 n $end
$var reg 1 4 v $end
$var reg 1 5 vdd $end
$var reg 1 6 vss $end
$var reg 32 7 res_temp[31:0] $end
$var reg 32 8 res_add[31:0] $end
$var reg 1 9 cout_temp $end
$var reg 1 : res_add_c $end
$scope module add $end
$var reg 32 ; a[31:0] $end
$var reg 32 < b[31:0] $end
$var reg 1 = cin $end
$var reg 32 > res[31:0] $end
$var reg 1 ? cout $end
$var reg 10 @ c[9:0] $end
$scope module fa0 $end
$var reg 4 A a[3:0] $end
$var reg 4 B b[3:0] $end
$var reg 1 C cin $end
$var reg 4 D res[3:0] $end
$var reg 1 E cout $end
$var reg 5 F c[4:0] $end
$scope module fa0 $end
$var reg 1 G a $end
$var reg 1 H b $end
$var reg 1 I cin $end
$var reg 1 J res $end
$var reg 1 K cout $end
$upscope $end
$scope module fa1 $end
$var reg 1 L a $end
$var reg 1 M b $end
$var reg 1 N cin $end
$var reg 1 O res $end
$var reg 1 P cout $end
$upscope $end
$scope module fa2 $end
$var reg 1 Q a $end
$var reg 1 R b $end
$var reg 1 S cin $end
$var reg 1 T res $end
$var reg 1 U cout $end
$upscope $end
$scope module fa3 $end
$var reg 1 V a $end
$var reg 1 W b $end
$var reg 1 X cin $end
$var reg 1 Y res $end
$var reg 1 Z cout $end
$upscope $end
$upscope $end
$scope module fa1 $end
$var reg 4 [ a[3:0] $end
$var reg 4 \ b[3:0] $end
$var reg 1 ] cin $end
$var reg 4 ^ res[3:0] $end
$var reg 1 _ cout $end
$var reg 5 ` c[4:0] $end
$scope module fa0 $end
$var reg 1 a a $end
$var reg 1 b b $end
$var reg 1 c cin $end
$var reg 1 d res $end
$var reg 1 e cout $end
$upscope $end
$scope module fa1 $end
$var reg 1 f a $end
$var reg 1 g b $end
$var reg 1 h cin $end
$var reg 1 i res $end
$var reg 1 j cout $end
$upscope $end
$scope module fa2 $end
$var reg 1 k a $end
$var reg 1 l b $end
$var reg 1 m cin $end
$var reg 1 n res $end
$var reg 1 o cout $end
$upscope $end
$scope module fa3 $end
$var reg 1 p a $end
$var reg 1 q b $end
$var reg 1 r cin $end
$var reg 1 s res $end
$var reg 1 t cout $end
$upscope $end
$upscope $end
$scope module fa2 $end
$var reg 4 u a[3:0] $end
$var reg 4 v b[3:0] $end
$var reg 1 w cin $end
$var reg 4 x res[3:0] $end
$var reg 1 y cout $end
$var reg 5 z c[4:0] $end
$scope module fa0 $end
$var reg 1 { a $end
$var reg 1 | b $end
$var reg 1 } cin $end
$var reg 1 !" res $end
$var reg 1 "" cout $end
$upscope $end
$scope module fa1 $end
$var reg 1 #" a $end
$var reg 1 $" b $end
$var reg 1 %" cin $end
$var reg 1 &" res $end
$var reg 1 '" cout $end
$upscope $end
$scope module fa2 $end
$var reg 1 (" a $end
$var reg 1 )" b $end
$var reg 1 *" cin $end
$var reg 1 +" res $end
$var reg 1 ," cout $end
$upscope $end
$scope module fa3 $end
$var reg 1 -" a $end
$var reg 1 ." b $end
$var reg 1 /" cin $end
$var reg 1 0" res $end
$var reg 1 1" cout $end
$upscope $end
$upscope $end
$scope module fa3 $end
$var reg 4 2" a[3:0] $end
$var reg 4 3" b[3:0] $end
$var reg 1 4" cin $end
$var reg 4 5" res[3:0] $end
$var reg 1 6" cout $end
$var reg 5 7" c[4:0] $end
$scope module fa0 $end
$var reg 1 8" a $end
$var reg 1 9" b $end
$var reg 1 :" cin $end
$var reg 1 ;" res $end
$var reg 1 <" cout $end
$upscope $end
$scope module fa1 $end
$var reg 1 =" a $end
$var reg 1 >" b $end
$var reg 1 ?" cin $end
$var reg 1 @" res $end
$var reg 1 A" cout $end
$upscope $end
$scope module fa2 $end
$var reg 1 B" a $end
$var reg 1 C" b $end
$var reg 1 D" cin $end
$var reg 1 E" res $end
$var reg 1 F" cout $end
$upscope $end
$scope module fa3 $end
$var reg 1 G" a $end
$var reg 1 H" b $end
$var reg 1 I" cin $end
$var reg 1 J" res $end
$var reg 1 K" cout $end
$upscope $end
$upscope $end
$scope module fa4 $end
$var reg 4 L" a[3:0] $end
$var reg 4 M" b[3:0] $end
$var reg 1 N" cin $end
$var reg 4 O" res[3:0] $end
$var reg 1 P" cout $end
$var reg 5 Q" c[4:0] $end
$scope module fa0 $end
$var reg 1 R" a $end
$var reg 1 S" b $end
$var reg 1 T" cin $end
$var reg 1 U" res $end
$var reg 1 V" cout $end
$upscope $end
$scope module fa1 $end
$var reg 1 W" a $end
$var reg 1 X" b $end
$var reg 1 Y" cin $end
$var reg 1 Z" res $end
$var reg 1 [" cout $end
$upscope $end
$scope module fa2 $end
$var reg 1 \" a $end
$var reg 1 ]" b $end
$var reg 1 ^" cin $end
$var reg 1 _" res $end
$var reg 1 `" cout $end
$upscope $end
$scope module fa3 $end
$var reg 1 a" a $end
$var reg 1 b" b $end
$var reg 1 c" cin $end
$var reg 1 d" res $end
$var reg 1 e" cout $end
$upscope $end
$upscope $end
$scope module fa5 $end
$var reg 4 f" a[3:0] $end
$var reg 4 g" b[3:0] $end
$var reg 1 h" cin $end
$var reg 4 i" res[3:0] $end
$var reg 1 j" cout $end
$var reg 5 k" c[4:0] $end
$scope module fa0 $end
$var reg 1 l" a $end
$var reg 1 m" b $end
$var reg 1 n" cin $end
$var reg 1 o" res $end
$var reg 1 p" cout $end
$upscope $end
$scope module fa1 $end
$var reg 1 q" a $end
$var reg 1 r" b $end
$var reg 1 s" cin $end
$var reg 1 t" res $end
$var reg 1 u" cout $end
$upscope $end
$scope module fa2 $end
$var reg 1 v" a $end
$var reg 1 w" b $end
$var reg 1 x" cin $end
$var reg 1 y" res $end
$var reg 1 z" cout $end
$upscope $end
$scope module fa3 $end
$var reg 1 {" a $end
$var reg 1 |" b $end
$var reg 1 }" cin $end
$var reg 1 !# res $end
$var reg 1 "# cout $end
$upscope $end
$upscope $end
$scope module fa6 $end
$var reg 4 ## a[3:0] $end
$var reg 4 $# b[3:0] $end
$var reg 1 %# cin $end
$var reg 4 &# res[3:0] $end
$var reg 1 '# cout $end
$var reg 5 (# c[4:0] $end
$scope module fa0 $end
$var reg 1 )# a $end
$var reg 1 *# b $end
$var reg 1 +# cin $end
$var reg 1 ,# res $end
$var reg 1 -# cout $end
$upscope $end
$scope module fa1 $end
$var reg 1 .# a $end
$var reg 1 /# b $end
$var reg 1 0# cin $end
$var reg 1 1# res $end
$var reg 1 2# cout $end
$upscope $end
$scope module fa2 $end
$var reg 1 3# a $end
$var reg 1 4# b $end
$var reg 1 5# cin $end
$var reg 1 6# res $end
$var reg 1 7# cout $end
$upscope $end
$scope module fa3 $end
$var reg 1 8# a $end
$var reg 1 9# b $end
$var reg 1 :# cin $end
$var reg 1 ;# res $end
$var reg 1 <# cout $end
$upscope $end
$upscope $end
$scope module fa7 $end
$var reg 4 =# a[3:0] $end
$var reg 4 ># b[3:0] $end
$var reg 1 ?# cin $end
$var reg 4 @# res[3:0] $end
$var reg 1 A# cout $end
$var reg 5 B# c[4:0] $end
$scope module fa0 $end
$var reg 1 C# a $end
$var reg 1 D# b $end
$var reg 1 E# cin $end
$var reg 1 F# res $end
$var reg 1 G# cout $end
$upscope $end
$scope module fa1 $end
$var reg 1 H# a $end
$var reg 1 I# b $end
$var reg 1 J# cin $end
$var reg 1 K# res $end
$var reg 1 L# cout $end
$upscope $end
$scope module fa2 $end
$var reg 1 M# a $end
$var reg 1 N# b $end
$var reg 1 O# cin $end
$var reg 1 P# res $end
$var reg 1 Q# cout $end
$upscope $end
$scope module fa3 $end
$var reg 1 R# a $end
$var reg 1 S# b $end
$var reg 1 T# cin $end
$var reg 1 U# res $end
$var reg 1 V# cout $end
$upscope $end
$upscope $end
$upscope $end
$upscope $end
$enddefinitions $end
#0
b00010000000000000000000000000000 !
b00000000000000000000000000000001 "
0#
b00 $
b00010000000000000000000000000001 %
0&
0'
0(
0)
1*
0+
b00010000000000000000000000000000 ,
b00000000000000000000000000000001 -
0.
b00 /
b00010000000000000000000000000001 0
01
02
03
04
15
06
b00010000000000000000000000000001 7
b00010000000000000000000000000001 8
09
0:
b00010000000000000000000000000000 ;
b00000000000000000000000000000001 <
0=
b00010000000000000000000000000001 >
0?
bU00000000U @
b0000 A
b0001 B
0C
b0001 D
0E
b0000U F
0G
1H
0I
1J
0K
0L
0M
0N
0O
0P
0Q
0R
0S
0T
0U
0V
0W
0X
0Y
0Z
b0000 [
b0000 \
0]
b0000 ^
0_
b0000U `
0a
0b
0c
0d
0e
0f
0g
0h
0i
0j
0k
0l
0m
0n
0o
0p
0q
0r
0s
0t
b0000 u
b0000 v
0w
b0000 x
0y
b0000U z
0{
0|
0}
0!"
0""
0#"
0$"
0%"
0&"
0'"
0("
0)"
0*"
0+"
0,"
0-"
0."
0/"
00"
01"
b0000 2"
b0000 3"
04"
b0000 5"
06"
b0000U 7"
08"
09"
0:"
0;"
0<"
0="
0>"
0?"
0@"
0A"
0B"
0C"
0D"
0E"
0F"
0G"
0H"
0I"
0J"
0K"
b0000 L"
b0000 M"
0N"
b0000 O"
0P"
b0000U Q"
0R"
0S"
0T"
0U"
0V"
0W"
0X"
0Y"
0Z"
0["
0\"
0]"
0^"
0_"
0`"
0a"
0b"
0c"
0d"
0e"
b0000 f"
b0000 g"
0h"
b0000 i"
0j"
b0000U k"
0l"
0m"
0n"
0o"
0p"
0q"
0r"
0s"
0t"
0u"
0v"
0w"
0x"
0y"
0z"
0{"
0|"
0}"
0!#
0"#
b0000 ##
b0000 $#
0%#
b0000 &#
0'#
b0000U (#
0)#
0*#
0+#
0,#
0-#
0.#
0/#
00#
01#
02#
03#
04#
05#
06#
07#
08#
09#
0:#
0;#
0<#
b0001 =#
b0000 >#
0?#
b0001 @#
0A#
b0000U B#
1C#
0D#
0E#
1F#
0G#
0H#
0I#
0J#
0K#
0L#
0M#
0N#
0O#
0P#
0Q#
0R#
0S#
0T#
0U#
0V#
#10000000
b11111111111111111111111111111111 !
b00000000000000000000000000000000 %
1&
1'
0(
1)
b11111111111111111111111111111111 ,
b00000000000000000000000000000000 0
11
12
03
14
b00000000000000000000000000000000 7
b00000000000000000000000000000000 8
19
1:
b11111111111111111111111111111111 ;
b00000000000000000000000000000000 >
1?
bU11111111U @
b1111 A
b0000 D
1E
b1111U F
1G
0J
1K
1L
1N
0O
1P
1Q
1S
0T
1U
1V
1X
0Y
1Z
b1111 [
1]
b0000 ^
1_
b1111U `
1a
1c
0d
1e
1f
1h
0i
1j
1k
1m
0n
1o
1p
1r
0s
1t
b1111 u
1w
b0000 x
1y
b1111U z
1{
1}
0!"
1""
1#"
1%"
0&"
1'"
1("
1*"
0+"
1,"
1-"
1/"
00"
11"
b1111 2"
14"
b0000 5"
16"
b1111U 7"
18"
1:"
0;"
1<"
1="
1?"
0@"
1A"
1B"
1D"
0E"
1F"
1G"
1I"
0J"
1K"
b1111 L"
1N"
b0000 O"
1P"
b1111U Q"
1R"
1T"
0U"
1V"
1W"
1Y"
0Z"
1["
1\"
1^"
0_"
1`"
1a"
1c"
0d"
1e"
b1111 f"
1h"
b0000 i"
1j"
b1111U k"
1l"
1n"
0o"
1p"
1q"
1s"
0t"
1u"
1v"
1x"
0y"
1z"
1{"
1}"
0!#
1"#
b1111 ##
1%#
b0000 &#
1'#
b1111U (#
1)#
1+#
0,#
1-#
1.#
10#
01#
12#
13#
15#
06#
17#
18#
1:#
0;#
1<#
b1111 =#
1?#
b0000 @#
1A#
b1111U B#
1E#
0F#
1G#
1H#
1J#
0K#
1L#
1M#
1O#
0P#
1Q#
1R#
1T#
0U#
1V#
#20000000
b00000000000000000000000000000000 "
b11111111111111111111111111111111 %
0&
0'
1(
0)
b00000000000000000000000000000000 -
b11111111111111111111111111111111 0
01
02
13
04
b11111111111111111111111111111111 7
b11111111111111111111111111111111 8
09
0:
b00000000000000000000000000000000 <
b11111111111111111111111111111111 >
0?
bU00000000U @
b0000 B
b1111 D
0E
b0000U F
0H
1J
0K
0N
1O
0P
0S
1T
0U
0X
1Y
0Z
0]
b1111 ^
0_
b0000U `
0c
1d
0e
0h
1i
0j
0m
1n
0o
0r
1s
0t
0w
b1111 x
0y
b0000U z
0}
1!"
0""
0%"
1&"
0'"
0*"
1+"
0,"
0/"
10"
01"
04"
b1111 5"
06"
b0000U 7"
0:"
1;"
0<"
0?"
1@"
0A"
0D"
1E"
0F"
0I"
1J"
0K"
0N"
b1111 O"
0P"
b0000U Q"
0T"
1U"
0V"
0Y"
1Z"
0["
0^"
1_"
0`"
0c"
1d"
0e"
0h"
b1111 i"
0j"
b0000U k"
0n"
1o"
0p"
0s"
1t"
0u"
0x"
1y"
0z"
0}"
1!#
0"#
0%#
b1111 &#
0'#
b0000U (#
0+#
1,#
0-#
00#
11#
02#
05#
16#
07#
0:#
1;#
0<#
0?#
b1111 @#
0A#
b0000U B#
0E#
1F#
0G#
0J#
1K#
0L#
0O#
1P#
0Q#
0T#
1U#
0V#
#30000000
b10 $
b10 /
#40000000
b01 $
b00000000000000000000000000000000 %
1'
0(
b01 /
b00000000000000000000000000000000 0
12
03
b00000000000000000000000000000000 7
#50000000
b00010000000000000000000100000000 "
b11 $
b11101111111111111111111011111111 %
0'
1(
b00010000000000000000000100000000 -
b11 /
b11101111111111111111111011111111 0
02
13
b11101111111111111111111011111111 7
b00010000000000000000000011111111 8
1:
b00010000000000000000000100000000 <
b00010000000000000000000011111111 >
1?
bU11111100U @
b0001 v
b0000 x
1y
b1111U z
1|
0!"
1""
1%"
0&"
1'"
1*"
0+"
1,"
1/"
00"
11"
14"
b0000 5"
16"
b1111U 7"
1:"
0;"
1<"
1?"
0@"
1A"
1D"
0E"
1F"
1I"
0J"
1K"
1N"
b0000 O"
1P"
b1111U Q"
1T"
0U"
1V"
1Y"
0Z"
1["
1^"
0_"
1`"
1c"
0d"
1e"
1h"
b0000 i"
1j"
b1111U k"
1n"
0o"
1p"
1s"
0t"
1u"
1x"
0y"
1z"
1}"
0!#
1"#
1%#
b0000 &#
1'#
b1111U (#
1+#
0,#
1-#
10#
01#
12#
15#
06#
17#
1:#
0;#
1<#
b0001 >#
1?#
b0001 @#
1A#
b1111U B#
1D#
1E#
1F#
1G#
1J#
0K#
1L#
1O#
0P#
1Q#
1T#
0U#
1V#
#60000000
b00000000000000000000000000000000 !
b00010000000000000000000100000000 %
0(
b00000000000000000000000000000000 ,
b00010000000000000000000100000000 0
03
b00010000000000000000000100000000 7
b00010000000000000000000100000000 8
0:
b00000000000000000000000000000000 ;
b00010000000000000000000100000000 >
0?
bU00000000U @
b0000 A
b0000 D
0G
0J
0L
0O
0Q
0T
0V
0Y
b0000 [
b0000 ^
0a
0d
0f
0i
0k
0n
0p
0s
b0000 u
b0001 x
0y
b0000U z
0{
1!"
0""
0#"
0%"
0&"
0'"
0("
0*"
0+"
0,"
0-"
0/"
00"
01"
b0000 2"
04"
b0000 5"
06"
b0000U 7"
08"
0:"
0;"
0<"
0="
0?"
0@"
0A"
0B"
0D"
0E"
0F"
0G"
0I"
0J"
0K"
b0000 L"
0N"
b0000 O"
0P"
b0000U Q"
0R"
0T"
0U"
0V"
0W"
0Y"
0Z"
0["
0\"
0^"
0_"
0`"
0a"
0c"
0d"
0e"
b0000 f"
0h"
b0000 i"
0j"
b0000U k"
0l"
0n"
0o"
0p"
0q"
0s"
0t"
0u"
0v"
0x"
0y"
0z"
0{"
0}"
0!#
0"#
b0000 ##
0%#
b0000 &#
0'#
b0000U (#
0)#
0+#
0,#
0-#
0.#
00#
01#
02#
03#
05#
06#
07#
08#
0:#
0;#
0<#
b0000 =#
0?#
b0001 @#
0A#
b0000U B#
0C#
0E#
1F#
0G#
0H#
0J#
0K#
0L#
0M#
0O#
0P#
0Q#
0R#
0T#
0U#
0V#
#70000000
b11111111111111111111111111111111 !
b11101111111111111111111011111111 %
1(
b11111111111111111111111111111111 ,
b11101111111111111111111011111111 0
13
b11101111111111111111111011111111 7
b00010000000000000000000011111111 8
1:
b11111111111111111111111111111111 ;
b00010000000000000000000011111111 >
1?
bU11111100U @
b1111 A
b1111 D
1G
1J
1L
1O
1Q
1T
1V
1Y
b1111 [
b1111 ^
1a
1d
1f
1i
1k
1n
1p
1s
b1111 u
b0000 x
1y
b1111U z
1{
0!"
1""
1#"
1%"
0&"
1'"
1("
1*"
0+"
1,"
1-"
1/"
00"
11"
b1111 2"
14"
b0000 5"
16"
b1111U 7"
18"
1:"
0;"
1<"
1="
1?"
0@"
1A"
1B"
1D"
0E"
1F"
1G"
1I"
0J"
1K"
b1111 L"
1N"
b0000 O"
1P"
b1111U Q"
1R"
1T"
0U"
1V"
1W"
1Y"
0Z"
1["
1\"
1^"
0_"
1`"
1a"
1c"
0d"
1e"
b1111 f"
1h"
b0000 i"
1j"
b1111U k"
1l"
1n"
0o"
1p"
1q"
1s"
0t"
1u"
1v"
1x"
0y"
1z"
1{"
1}"
0!#
1"#
b1111 ##
1%#
b0000 &#
1'#
b1111U (#
1)#
1+#
0,#
1-#
1.#
10#
01#
12#
13#
15#
06#
17#
18#
1:#
0;#
1<#
b1111 =#
1?#
b0001 @#
1A#
b1111U B#
1C#
1E#
1F#
1G#
1H#
1J#
0K#
1L#
1M#
1O#
0P#
1Q#
1R#
1T#
0U#
1V#
#80000000
b00000000000000000000000000000000 !
b00010000000000000000000100000000 %
0(
b00000000000000000000000000000000 ,
b00010000000000000000000100000000 0
03
b00010000000000000000000100000000 7
b00010000000000000000000100000000 8
0:
b00000000000000000000000000000000 ;
b00010000000000000000000100000000 >
0?
bU00000000U @
b0000 A
b0000 D
0G
0J
0L
0O
0Q
0T
0V
0Y
b0000 [
b0000 ^
0a
0d
0f
0i
0k
0n
0p
0s
b0000 u
b0001 x
0y
b0000U z
0{
1!"
0""
0#"
0%"
0&"
0'"
0("
0*"
0+"
0,"
0-"
0/"
00"
01"
b0000 2"
04"
b0000 5"
06"
b0000U 7"
08"
0:"
0;"
0<"
0="
0?"
0@"
0A"
0B"
0D"
0E"
0F"
0G"
0I"
0J"
0K"
b0000 L"
0N"
b0000 O"
0P"
b0000U Q"
0R"
0T"
0U"
0V"
0W"
0Y"
0Z"
0["
0\"
0^"
0_"
0`"
0a"
0c"
0d"
0e"
b0000 f"
0h"
b0000 i"
0j"
b0000U k"
0l"
0n"
0o"
0p"
0q"
0s"
0t"
0u"
0v"
0x"
0y"
0z"
0{"
0}"
0!#
0"#
b0000 ##
0%#
b0000 &#
0'#
b0000U (#
0)#
0+#
0,#
0-#
0.#
00#
01#
02#
03#
05#
06#
07#
08#
0:#
0;#
0<#
b0000 =#
0?#
b0001 @#
0A#
b0000U B#
0C#
0E#
1F#
0G#
0H#
0J#
0K#
0L#
0M#
0O#
0P#
0Q#
0R#
0T#
0U#
0V#
