Simulations/testShifter.vcd
$date
  Sat Jan 13 00:27:58 2024
$end
$version
  GHDL v0
$end
$timescale
  1 fs
$end
$var reg 1 ! sig_shift_lsl $end
$var reg 1 " sig_shift_lsr $end
$var reg 1 # sig_shift_asr $end
$var reg 1 $ sig_shift_ror $end
$var reg 1 % sig_shift_rrx $end
$var reg 5 & sig_shift_val[4:0] $end
$var reg 32 ' sig_din[31:0] $end
$var reg 1 ( sig_cin $end
$var reg 32 ) sig_dout[31:0] $end
$var reg 1 * sig_cout $end
$var reg 1 + sig_vdd $end
$var reg 1 , sig_vss $end
$scope module shifter_inst $end
$var reg 1 - shift_lsl $end
$var reg 1 . shift_lsr $end
$var reg 1 / shift_asr $end
$var reg 1 0 shift_ror $end
$var reg 1 1 shift_rrx $end
$var reg 5 2 shift_val[4:0] $end
$var reg 32 3 din[31:0] $end
$var reg 1 4 cin $end
$var reg 32 5 dout[31:0] $end
$var reg 1 6 cout $end
$var reg 1 7 vdd $end
$var reg 1 8 vss $end
$var reg 32 9 sig_dout[31:0] $end
$var reg 1 : sig_cout $end
$upscope $end
$enddefinitions $end
#0
1!
0"
0#
0$
0%
b00010 &
b00000000000000000000000000000001 '
0(
b00000000000000000000000000000010 )
0*
1+
0,
1-
0.
0/
00
01
b00010 2
b00000000000000000000000000000001 3
04
b00000000000000000000000000000010 5
06
17
08
b00000000000000000000000000000010 9
0:
#10000000
b00000000000000000000000000000011 '
b00000000000000000000000000000110 )
b00000000000000000000000000000011 3
b00000000000000000000000000000110 5
b00000000000000000000000000000110 9
#20000000
b00000000000000000000000000001111 '
b00000000000000000000000000011110 )
b00000000000000000000000000001111 3
b00000000000000000000000000011110 5
b00000000000000000000000000011110 9
#30000000
b11110000000000000000000000000000 '
b11100000000000000000000000000000 )
1*
b11110000000000000000000000000000 3
b11100000000000000000000000000000 5
16
b11100000000000000000000000000000 9
1:
#40000000
0!
1"
b00000000000000000000000000000001 '
b00000000000000000000000000000000 )
0-
1.
b00000000000000000000000000000001 3
b00000000000000000000000000000000 5
b00000000000000000000000000000000 9
#50000000
b00000000000000000000000000000011 '
b00000000000000000000000000000001 )
b00000000000000000000000000000011 3
b00000000000000000000000000000001 5
b00000000000000000000000000000001 9
#60000000
b00000000000000000000000000001111 '
b00000000000000000000000000000111 )
b00000000000000000000000000001111 3
b00000000000000000000000000000111 5
b00000000000000000000000000000111 9
#70000000
b11110000000000000000000000000000 '
b01111000000000000000000000000000 )
0*
b11110000000000000000000000000000 3
b01111000000000000000000000000000 5
06
b01111000000000000000000000000000 9
0:
#80000000
0"
1#
b00000000000000000000000000000001 '
b00000000000000000000000000000000 )
1*
0.
1/
b00000000000000000000000000000001 3
b00000000000000000000000000000000 5
16
b00000000000000000000000000000000 9
1:
#90000000
b00000000000000000000000000000011 '
b00000000000000000000000000000001 )
b00000000000000000000000000000011 3
b00000000000000000000000000000001 5
b00000000000000000000000000000001 9
#100000000
b00000000000000000000000000001111 '
b00000000000000000000000000000111 )
b00000000000000000000000000001111 3
b00000000000000000000000000000111 5
b00000000000000000000000000000111 9
